<?xml version="1.0" encoding="UTF-8"?>
<!DOCTYPE X3D PUBLIC "ISO//Web3D//DTD X3D 3.0//EN" "http://www.web3d.org/specifications/x3d-3.0.dtd">
<X3D xmlns:xsd='http://www.w3.org/2001/XMLSchema-instance' profile='Full' version='3.0' xsd:noNamespaceSchemaLocation='http://www.web3d.org/specifications/x3d-3.0.xsd'>
  <Scene DEF='scene'>
    <WorldInfo title='Jiri Zara - Priklad: Zakladni telesa - Kuzel'/>
    <Viewpoint description='Mirne zboku' orientation='0 1 0 0.5' position='33 1.5 60' fieldOfView='0.12'/>
    <Transform rotation='1 0 -0.5 0.3'>
      <Inline DEF='OSY' url='"osy.wrl"'/>
      <Shape>
        <Cone/>
      </Shape>
    </Transform>
  </Scene>
</X3D>