<?xml version="1.0" encoding="UTF-8"?>
<!DOCTYPE X3D PUBLIC "ISO//Web3D//DTD X3D 3.0//EN" "http://www.web3d.org/specifications/x3d-3.0.dtd">
<X3D xmlns:xsd='http://www.w3.org/2001/XMLSchema-instance' profile='Full' version='3.0' xsd:noNamespaceSchemaLocation='http://www.web3d.org/specifications/x3d-3.0.xsd'>
  <Scene DEF='scene'>
    <WorldInfo title='Jiri Zara - Priklad: DEF a USE - stolek'/>
    <Viewpoint description='Zepredu' orientation='1 0 0 -0.16' position='0 2 10' fieldOfView='0.16'/>
    <Transform DEF='Stolek' rotation='0 1 0 0.3' scale='0.01 0.01 0.01'>
      <Transform translation='0 80 0'>
        <Shape>
          <Appearance DEF='Hnedy-povrch'>
            <Material diffuseColor='1 0.6 0.2'/>
          </Appearance>
          <Box size='120 2 60'/>
        </Shape>
      </Transform>
      <Transform translation='-50 40 -25'>
        <Shape DEF='Jedna-noha'>
          <Appearance USE='Hnedy-povrch'/>
          <Cylinder top='false' height='80' radius='2'/>
        </Shape>
      </Transform>
      <Transform translation='-50 40 25'>
        <Shape USE='Jedna-noha'/>
      </Transform>
      <Transform translation='50 40 -25'>
        <Shape USE='Jedna-noha'/>
      </Transform>
      <Transform translation='50 40 25'>
        <Shape USE='Jedna-noha'/>
      </Transform>
    </Transform>
  </Scene>
</X3D>