<?xml version="1.0" encoding="UTF-8"?>
<!DOCTYPE X3D PUBLIC "ISO//Web3D//DTD X3D 3.0//EN" "http://www.web3d.org/specifications/x3d-3.0.dtd">
<X3D xmlns:xsd='http://www.w3.org/2001/XMLSchema-instance' profile='Full' version='3.0' xsd:noNamespaceSchemaLocation='http://www.web3d.org/specifications/x3d-3.0.xsd'>
  <Scene DEF='scene'>
    <WorldInfo title='Jiri Zara - Program: Pozadi s pomoci kvadru'/>
    <Viewpoint description='Trochu doprava' orientation='0 1 0 -2.2' position='0 0 0' fieldOfView='0.7854'/>
    <Background backUrl='"bg_bk.jpg"' bottomUrl='"bg_dn.jpg"' frontUrl='"bg_ft.jpg"' leftUrl='"bg_lf.jpg"' rightUrl='"bg_rt.jpg"' topUrl='"bg_up.jpg"'/>
  </Scene>
</X3D>