#VRML V2.0 utf8

WorldInfo { title "Jiri Zara: Program - ElevationGrid" }

Viewpoint {
  position       -0.2 0.6 10
  orientation    1 0 0 -0.16
  description    "Zepredu"
  fieldOfView    0.65
}

Background {skyColor 0.4 0.8 1 } 

Transform {
  rotation -0.5 1 0 -0.8
  scale 1 0.3 1
  children  Shape {
    appearance Appearance {
      texture ImageTexture { url "mapa-rgb.gif"}
      textureTransform TextureTransform { scale 1 -1 }
    }
    geometry ElevationGrid {
      xDimension  4   xSpacing 1
      zDimension  5   zSpacing 1
      height [ 1 0 1 1, 2 1 0 1, 2 0 0 2,
               1 0.5 2 2, 1 0.5 2 1 ]
    }
  }
}
