#VRML V2.0 utf8

WorldInfo {title "Jiri Zara - Kulovy ovladac" }

Shape {
  geometry Sphere {}
  appearance Appearance {
    texture PixelTexture { 
      image  4 4 1
            0x00 0xFF 0xFF 0xFF
            0x00 0xFF 0xFF 0xFF
            0x00 0xFF 0xFF 0xFF
            0x00 0xFF 0xFF 0xFF
   }
   textureTransform 
     TextureTransform {scale 15 5}
  }
}
