<?xml version="1.0" encoding="UTF-8"?>
<!DOCTYPE X3D PUBLIC "ISO//Web3D//DTD X3D 3.0//EN" "http://www.web3d.org/specifications/x3d-3.0.dtd">
<X3D xmlns:xsd='http://www.w3.org/2001/XMLSchema-instance' profile='Full' version='3.0' xsd:noNamespaceSchemaLocation='http://www.web3d.org/specifications/x3d-3.0.xsd'>
  <Scene DEF='scene'>
    <WorldInfo title='Jiri Zara - Program: Zlutozelena mlha'/>
    <Viewpoint description='Zblizka' position='1.2 0.2 5' fieldOfView='0.7'/>
    <Fog color='0.8 1 0.5' visibilityRange='10'/>
    <Background skyColor='0.8 1 0.5'/>
    <Transform DEF='VALEC'>
      <Shape>
        <Appearance>
          <Material diffuseColor='1 0.2 0' specularColor='1 1 1'/>
        </Appearance>
        <Cylinder/>
      </Shape>
    </Transform>
    <Transform translation='2 0 -2'>
      <Transform USE='VALEC'/>
    </Transform>
    <Transform translation='5 0 -5'>
      <Transform USE='VALEC'/>
    </Transform>
  </Scene>
</X3D>