<?xml version="1.0" encoding="UTF-8"?>
<!DOCTYPE X3D PUBLIC "ISO//Web3D//DTD X3D 3.0//EN" "http://www.web3d.org/specifications/x3d-3.0.dtd">
<X3D xmlns:xsd='http://www.w3.org/2001/XMLSchema-instance' profile='Full' version='3.0' xsd:noNamespaceSchemaLocation='http://www.web3d.org/specifications/x3d-3.0.xsd'>
  <Scene DEF='scene'>
    <WorldInfo title='Jiri Zara - Priklad: Trojuhelniky, barvy, normaly'/>
    <Viewpoint description='Zepredu' position='0 0.8 10' fieldOfView='0.27'/>
    <Transform>
      <Transform translation='-2.2 0 0'>
        <Shape>
          <IndexedFaceSet colorPerVertex='false' coordIndex='0 1 3 -1 1 2 3 -1 2 0 3 -1'>
            <Coordinate DEF='VRCHOLY' point='-1 0 0 1 0 0 0 1.4 0 0 0.4 0'/>
            <Color DEF='BARVY' color='1 0 0 0 1 0 0 0 1 1 1 0'/>
          </IndexedFaceSet>
        </Shape>
      </Transform>
      <Transform>
        <Shape>
          <IndexedFaceSet coordIndex='0 1 3 -1 1 2 3 -1 2 0 3 -1'>
            <Coordinate USE='VRCHOLY'/>
            <Color USE='BARVY'/>
          </IndexedFaceSet>
        </Shape>
      </Transform>
      <Transform translation='2.2 0 0'>
        <Shape>
          <Appearance>
            <Material diffuseColor='0 0.6 1' specularColor='1 1 1'/>
          </Appearance>
          <IndexedFaceSet coordIndex='0 1 3 -1 1 2 3 -1 2 0 3 -1'>
            <Coordinate USE='VRCHOLY'/>
            <Normal vector='-0.58 -0.58 0.58 0.58 -0.58 0.58 0 0 1 0 -0.6 0.8'/>
          </IndexedFaceSet>
        </Shape>
      </Transform>
    </Transform>
  </Scene>
</X3D>