#VRML V2.0 utf8

NavigationInfo { type [ "EXAMINE" "ANY" ] }

Viewpoint {
  description "Initial"
  position 10  5 20
	orientation	1 -2 0  -.4
}
Background {
	skyColor [.9 .9 .3]
}

Transform {
  children [
    Shape {
      geometry DEF NS NurbsSurface {
        solid FALSE
        uDimension 3
        uOrder 3
				#        uTessellation 0
#				quality	[0, .75]
        vDimension 3
        vOrder 3
				#        vTessellation 20
        controlPoint [ 
				  -5 0 -5,  -5 0 0,   -5 0 5,  
		  	  0 0 -5 ,   0 0 0,    0 0 5 ,   
		  	  5 0 -5,   5 0 0,    5 0 5 ,  
				]
				weight [.5 .5 .5 .5 .5 .5 .5 .5 .5]
      }
      appearance Appearance { material Material {	 diffuseColor 0 1 1 }  }
    }
		DEF	G Group	{}
  ]
}

PROTO	NurbsDragger [field SFVec3f position 0 0 0
	field	SFInt32	controlPointIndex 0
	field	SFNode nurbsNode NULL
]
{
	Transform	{ translation	IS position
		children [
			DEF	T Transform	{
				children Shape {
					geometry Sphere {radius .5 }
					appearance Appearance	{
						material Material	{emissiveColor 1 0 0}
					}
				}
			}
			DEF	DRAG PlaneSensor { minPosition 0 -15 maxPosition 0 15}
			DEF	S Script {
				field	SFNode uzel IS nurbsNode
				eventIn	SFVec3f	getPosition
				field	SFInt32	index IS controlPointIndex
				field	SFVec3f	initPos IS position
				directOutput TRUE
				url	"javascript:
				function getPosition(v) {
					uzel.controlPoint[index] = new SFVec3f( initPos[0], initPos[1]+v[1], initPos[2]);
				}
				"
			}
		]
		ROUTE	DRAG.translation_changed TO	T.translation
		ROUTE	DRAG.translation_changed TO	S.getPosition
	}
}

NurbsDragger {	position -5 0 -5	controlPointIndex	0	nurbsNode	USE	NS }
NurbsDragger {	position -5 0  0	controlPointIndex	1	nurbsNode	USE	NS }
NurbsDragger {	position -5 0  5	controlPointIndex	2	nurbsNode	USE	NS }
NurbsDragger {	position  0 0 -5	controlPointIndex	3	nurbsNode	USE	NS }
NurbsDragger {	position  0 0  0	controlPointIndex	4	nurbsNode	USE	NS }
NurbsDragger {	position  0 0  5	controlPointIndex	5	nurbsNode	USE	NS }
NurbsDragger {	position  5 0 -5	controlPointIndex	6	nurbsNode	USE	NS }
NurbsDragger {	position  5 0  0	controlPointIndex	7	nurbsNode	USE	NS }
NurbsDragger {	position  5 0  5	controlPointIndex	8	nurbsNode	USE	NS }


DEF	S-INIT Script {
	directOutput TRUE
	field SFNode rodic USE G
	field	SFNode nurbs USE NS
	url	"javascript:
	function initialize () {
		koule = new MFNode();
		for (i=0; i<nurbs.controlPoint.length; i++) {
			v = nurbs.controlPoint[i];
			str = new String('Transform { translation ' + v[0] + ' ' + v[1] + ' ' + v[2] 
				+ ' children Shape { geometry Sphere {radius .2}}}');
			jedna = Browser.createVrmlFromString(str);
			koule[i] = jedna[0];
		}
		rodic.children = koule;
	}
	"
}

Transform {
	translation 0 0 7 
	children [
	  DEF	BOX Transform {
			children Shape {
				geometry Box { size	.5 .5 .5}
				appearance Appearance	{
					material Material	{diffuseColor 0 1 0}
				}
			}
		}
		DEF SLIDER PlaneSensor	{
			minPosition -5 0 maxPosition	5 0
		}
	]
}
DEF	SLIDERSCRIPT Script	{
	eventIn	SFVec3f	pos
	field	SFNode nurbs USE NS
	eventOut MFFloat q
	url	"javascript:
	function pos (v) {
		q = new MFFloat((v[0]+5.0)/20.0);
	}
	"
}
ROUTE	SLIDER.translation_changed TO	BOX.translation
ROUTE	SLIDER.translation_changed TO SLIDERSCRIPT.pos
ROUTE	SLIDERSCRIPT.q TO	NS.quality