#VRML V2.0 utf8
# Terrain Tree
# Autogenerated by CreateVRMLTree Program on 9/15/98
# N353611.W1223609.070.051.1000.tree.wrl
#
EXTERNPROTO QuadLOD [ 
field        MFString parentUrl 
field        MFString child1Url 
field        MFString child2Url 
field        MFString child3Url 
field        MFString child4Url 
field        SFVec3f  parentCenter 
field        SFVec3f  parentSize 
field        SFVec3f  switchSize 
eventOut     MFNode   children 
field        SFBool   enabled 
eventIn      SFBool   set_enabled 
eventOut     SFBool   enabled_changed 
] "../../QuadLOD.wrl#QuadLOD"

Group { 
	children [ 
	WorldInfo { title "Tree World for QuadLOD PROTO"}
	QuadLOD { 
		parentUrl "1000m/Tiles/N353611.W1223609.070.051.1000.seabeam.wrl"
		child1Url "500m/Tiles/N353611.W1223609.035.025.0500.seabeam.wrl"
		child2Url "500m/Tiles/N353603.W1221058.035.025.0500.seabeam.wrl"
		child3Url "500m/Tiles/N361113.W1221037.035.025.0500.seabeam.wrl"
		child4Url "500m/Tiles/N361120.W1223558.035.025.0500.seabeam.wrl"
		parentCenter 114000 0 195000
		parentSize   76000 500000 130000 
		switchSize   76000 50000 130000 
	} 
  	] 
} 
