#VRML V2.0 utf8

Shape {
	appearance Appearance {
		material Material {transparency 0.75}
		texture ImageTexture {
			url "images/flare.gif"
		}
}
geometry IndexedFaceSet {
texCoord TextureCoordinate { point [ 0 1 1 1 1 0 0 0 ] } coord Coordinate
{ point [ 46.683 208.444 -85.907 52.683 208.444 -85.907 52.683 202.444 -85.907 46.683
202.444 -85.907 -226.48 -378.47 -169.403 -220.48 -378.47 -169.403 -220.48 -384.47
-169.403 -226.48 -384.47 -169.403 130.881 -94.076 465.79 136.881 -94.076 465.79
136.881 -100.076 465.79 130.881 -100.076 465.79 320.181 -303.915 -38.055 326.181
-303.915 -38.055 326.181 -309.915 -38.055 320.181 -309.915 -38.055 318.228 477.304
203.644 324.228 477.304 203.644 324.228 471.304 203.644 318.228 471.304 203.644
54.312 77.219 -336.761 60.312 77.219 -336.761 60.312 71.219 -336.761 54.312 71.219
-336.761 -304.636 -354.91 408.112 -298.636 -354.91 408.112 -298.636 -360.91 408.112
-304.636 -360.91 408.112 53.091 -27.243 -465.363 59.091 -27.243 -465.363 59.091
-33.243 -465.363 53.091 -33.243 -465.363 -42.52 -346.945 -269.135 -36.52 -346.945
-269.135 -36.52 -352.945 -269.135 -42.52 -352.945 -269.135 -488.107 230.173 -242.767
-482.107 230.173 -242.767 -482.107 224.173 -242.767 -488.107 224.173 -242.767 64.413
346.994 -70.557 70.413 346.994 -70.557 70.413 340.994 -70.557 64.413 340.994 -70.557
18.637 152.597 -448.029 24.637 152.597 -448.029 24.637 146.597 -448.029 18.637 146.597
-448.029 59.622 -434.073 -327.606 65.622 -434.073 -327.606 65.622 -440.073 -327.606
59.622 -440.073 -327.606 -166.605 348.184 341.309 -160.605 348.184 341.309 -160.605
342.184 341.309 -166.605 342.184 341.309 -9.958 419.382 287.109 -3.958 419.382 287.109
-3.958 413.382 287.109 -9.958 413.382 287.109 333.365 437.784 185.242 339.365 437.784
185.242 339.365 431.784 185.242 333.365 431.784 185.242 -407.175 -362.54 -274.963
-401.175 -362.54 -274.963 -401.175 -368.54 -274.963 -407.175 -368.54 -274.963 2.768
142.16 17.975 8.768 142.16 17.975 8.768 136.16 17.975 2.768 136.16 17.975 34.445
-5.148 183.35 40.445 -5.148 183.35 40.445 -11.148 183.35 34.445 -11.148 183.35 147.208
-391.135 120.178 153.208 -391.135 120.178 153.208 -397.135 120.178 147.208 -397.135
120.178 122.488 -47.232 379.7 128.488 -47.232 379.7 128.488 -53.232 379.7 122.488
-53.232 379.7 12.778 441.538 248.169 18.778 441.538 248.169 18.778 435.538 248.169
12.778 435.538 248.169 -314.462 258.096 48.34 -308.462 258.096 48.34 -308.462 252.096
48.34 -314.462 252.096 48.34 321.402 388.895 30.396 327.402 388.895 30.396 327.402
382.895 30.396 321.402 382.895 30.396 -142.313 413.126 439.636 -136.313 413.126
439.636 -136.313 407.126 439.636 -142.313 407.126 439.636 -483.591 -339.194 -240.54
-477.591 -339.194 -240.54 -477.591 -345.194 -240.54 -483.591 -345.194 -240.54 435.965
-193.594 82.55 441.965 -193.594 82.55 441.965 -199.594 82.55 435.965 -199.594 82.55
373.77 -11.343 -321.594 379.77 -11.343 -321.594 379.77 -17.343 -321.594 373.77 -17.343
-321.594 -73.74 -.326 439.148 -67.74 -.326 439.148 -67.74 -6.326 439.148 -73.74
-6.326 439.148 199.148 463.144 409.454 205.148 463.144 409.454 205.148 457.144 409.454
199.148 457.144 409.454 -19.144 324.686 -34.393 -13.144 324.686 -34.393 -13.144
318.686 -34.393 -19.144 318.686 -34.393 -276.834 490.366 424.225 -270.834 490.366
424.225 -270.834 484.366 424.225 -276.834 484.366 424.225 284.598 -320.151 118.53
290.598 -320.151 118.53 290.598 -326.151 118.53 284.598 -326.151 118.53 153.158
-472.372 -464.386 159.158 -472.372 -464.386 159.158 -478.372 -464.386 153.158 -478.372
-464.386 191 355.905 -363.007 197 355.905 -363.007 197 349.905 -363.007 191 349.905
-363.007 -236.307 225.076 424.072 -230.307 225.076 424.072 -230.307 219.076 424.072
-236.307 219.076 424.072 168.387 -12.472 -387.543 174.387 -12.472 -387.543 174.387
-18.472 -387.543 168.387 -18.472 -387.543 34.506 -173.788 322.54 40.506 -173.788
322.54 40.506 -179.788 322.54 34.506 -179.788 322.54 17.996 448.801 55.573 23.996
448.801 55.573 23.996 442.801 55.573 17.996 442.801 55.573 -199.564 -199.332 299.103
-193.564 -199.332 299.103 -193.564 -205.332 299.103 -199.564 -205.332 299.103 490.744
-191.58 -492.92 496.744 -191.58 -492.92 496.744 -197.58 -492.92 490.744 -197.58
-492.92 285.086 316.721 218.018 291.086 316.721 218.018 291.086 310.721 218.018
285.086 310.721 218.018 -13.223 463.724 343.597 -7.223 463.724 343.597 -7.223 457.724
343.597 -13.223 457.724 343.597 377.615 -63.528 -443.298 383.615 -63.528 -443.298
383.615 -69.528 -443.298 377.615 -69.528 -443.298 93.741 401.529 422.699 99.741
401.529 422.699 99.741 395.529 422.699 93.741 395.529 422.699 200.003 458.139 -70.679
206.003 458.139 -70.679 206.003 452.139 -70.679 200.003 452.139 -70.679 432.761
317.697 222.137 438.761 317.697 222.137 438.761 311.697 222.137 432.761 311.697
222.137 30.844 -239.279 -455.444 36.844 -239.279 -455.444 36.844 -245.279 -455.444
30.844 -245.279 -455.444 259.848 188.394 278.076 265.848 188.394 278.076 265.848
182.394 278.076 259.848 182.394 278.076 122.183 454.386 30.762 128.183 454.386 30.762
128.183 448.386 30.762 122.183 448.386 30.762 139.09 -49.49 143.25 145.09 -49.49
143.25 145.09 -55.49 143.25 139.09 -55.49 143.25 -5.899 -272.818 219.36 .101 -272.818
219.36 .101 -278.818 219.36 -5.899 -278.818 219.36 389.242 341.165 -107.422 395.242
341.165 -107.422 395.242 335.165 -107.422 389.242 335.165 -107.422 -455.118 -367.27
-286.224 -449.118 -367.27 -286.224 -449.118 -373.27 -286.224 -455.118 -373.27 -286.224
-469.461 -207.51 26.154 -463.461 -207.51 26.154 -463.461 -213.51 26.154 -469.461
-213.51 26.154 -106.729 -192.831 -488.831 -100.729 -192.831 -488.831 -100.729 -198.831
-488.831 -106.729 -198.831 -488.831 249.38 -299.429 82.459 255.38 -299.429 82.459
255.38 -305.429 82.459 249.38 -305.429 82.459 403.891 -136.404 -289.154 409.891
-136.404 -289.154 409.891 -142.404 -289.154 403.891 -142.404 -289.154 80.527 -484.244
2.838 86.527 -484.244 2.838 86.527 -490.244 2.838 80.527 -490.244 2.838 -42.764
113.199 -435.12 -36.764 113.199 -435.12 -36.764 107.199 -435.12 -42.764 107.199
-435.12 -296.701 55.49 -92.316 -290.701 55.49 -92.316 -290.701 49.49 -92.316 -296.701
49.49 -92.316 340.384 427.103 -75.348 346.384 427.103 -75.348 346.384 421.103 -75.348
340.384 421.103 -75.348 86.966 349.68 79.803 92.966 349.68 79.803 92.966 343.68
79.803 86.966 343.68 79.803 -222.299 -389.395 -360.474 -216.299 -389.395 -360.474
-216.299 -395.395 -360.474 -222.299 -395.395 -360.474 322.439 314.798 225.098 328.439
314.798 225.098 328.439 308.798 225.098 322.439 308.798 225.098 215.506 233.591
-206.757 221.506 233.591 -206.757 221.506 227.591 -206.757 215.506 227.591 -206.757
473.776 -257.925 122.223 479.776 -257.925 122.223 479.776 -263.925 122.223 473.776
-263.925 122.223 149.283 73.129 -52.521 155.283 73.129 -52.521 155.283 67.129 -52.521
149.283 67.129 -52.521 -209.482 -396.719 204.803 -203.482 -396.719 204.803 -203.482
-402.719 204.803 -209.482 -402.719 204.803 -341.379 -196.31 -76.874 -335.379 -196.31
-76.874 -335.379 -202.31 -76.874 -341.379 -202.31 -76.874 -226.145 -352.469 66.223
-220.145 -352.469 66.223 -220.145 -358.469 66.223 -226.145 -358.469 66.223 20.621
-60.995 214.02 26.621 -60.995 214.02 26.621 -66.995 214.02 20.621 -66.995 214.02
-495.126 -187.491 -34.485 -489.126 -187.491 -34.485 -489.126 -193.491 -34.485 -495.126
-193.491 -34.485 -70.474 -85.623 20.966 -64.474 -85.623 20.966 -64.474 -91.623 20.966
-70.474 -91.623 20.966 -50.028 223.795 -233.582 -44.028 223.795 -233.582 -44.028
217.795 -233.582 -50.028 217.795 -233.582 88.431 223.795 239.044 94.431 223.795
239.044 94.431 217.795 239.044 88.431 217.795 239.044 280.997 -361.899 -14.74 286.997
-361.899 -14.74 286.997 -367.899 -14.74 280.997 -367.899 -14.74 -123.392 317.392
-344.543 -117.392 317.392 -344.543 -117.392 311.392 -344.543 -123.392 311.392 -344.543
209.921 217.508 384.003 215.921 217.508 384.003 215.921 211.508 384.003 209.921
211.508 384.003 65.054 145.853 241.882 71.054 145.853 241.882 71.054 139.853 241.882
65.054 139.853 241.882 -432.749 -365.53 443.817 -426.749 -365.53 443.817 -426.749
-371.53 443.817 -432.749 -371.53 443.817 272.055 436.228 -119.568 278.055 436.228
-119.568 278.055 430.228 -119.568 272.055 430.228 -119.568 471.884 -179.007 -277.527
477.884 -179.007 -277.527 477.884 -185.007 -277.527 471.884 -185.007 -277.527 151.358
-378.805 270.569 157.358 -378.805 270.569 157.358 -384.805 270.569 151.358 -384.805
270.569 75.064 318.552 153.076 81.064 318.552 153.076 81.064 312.552 153.076 75.064
312.552 153.076 305.014 447.58 250.671 311.014 447.58 250.671 311.014 441.58 250.671
305.014 441.58 250.671 -363.474 280.588 416.657 -357.474 280.588 416.657 -357.474
274.588 416.657 -363.474 274.588 416.657 -254.251 283.518 456.97 -248.251 283.518
456.97 -248.251 277.518 456.97 -254.251 277.518 456.97 231.955 -146.567 231.354
237.955 -146.567 231.354 237.955 -152.567 231.354 231.955 -152.567 231.354 -485.666
-345.724 261.414 -479.666 -345.724 261.414 -479.666 -351.724 261.414 -485.666 -351.724
261.414 322.165 38.492 381.561 328.165 38.492 381.561 328.165 32.492 381.561 322.165
32.492 381.561 -79.08 186.136 398.59 -73.08 186.136 398.59 -73.08 180.136 398.59
-79.08 180.136 398.59 362.631 343.454 178.345 368.631 343.454 178.345 368.631 337.454
178.345 362.631 337.454 178.345 -57.901 -444.998 -256.866 -51.901 -444.998 -256.866
-51.901 -450.998 -256.866 -57.901 -450.998 -256.866 218.558 -311.209 427.307 224.558
-311.209 427.307 224.558 -317.209 427.307 218.558 -317.209 427.307 -300.668 -158.499
448.822 -294.668 -158.499 448.822 -294.668 -164.499 448.822 -300.668 -164.499 448.822
5.148 271.738 -493.53 11.148 271.738 -493.53 11.148 265.738 -493.53 5.148 265.738
-493.53 -211.069 -482.016 242.34 -205.069 -482.016 242.34 -205.069 -488.016 242.34
-211.069 -488.016 242.34 -283.243 -470.419 446.106 -277.243 -470.419 446.106 -277.243
-476.419 446.106 -283.243 -476.419 446.106 -341.196 -244.894 196.503 -335.196 -244.894
196.503 -335.196 -250.894 196.503 -341.196 -250.894 196.503 267.905 111.826 -414.581
273.905 111.826 -414.581 273.905 105.826 -414.581 267.905 105.826 -414.581 352.682
463.999 -79.712 358.682 463.999 -79.712 358.682 457.999 -79.712 352.682 457.999
-79.712 -29.947 -8.505 78.064 -23.947 -8.505 78.064 -23.947 -14.505 78.064 -29.947
-14.505 78.064 -100.534 109.689 -83.649 -94.534 109.689 -83.649 -94.534 103.689
-83.649 -100.534 103.689 -83.649 -366.098 -355.978 -144.562 -360.098 -355.978 -144.562
-360.098 -361.978 -144.562 -366.098 -361.978 -144.562 -468.607 465.769 .336 -462.607
465.769 .336 -462.607 459.769 .336 -468.607 459.769 .336 43.112 -274.954 261.566
49.112 -274.954 261.566 49.112 -280.954 261.566 43.112 -280.954 261.566 -96.811
-244.009 271.088 -90.811 -244.009 271.088 -90.811 -250.009 271.088 -96.811 -250.009
271.088 118.735 8.28 66.376 124.735 8.28 66.376 124.735 2.28 66.376 118.735 2.28
66.376 -327.921 -330.618 295.319 -321.921 -330.618 295.319 -321.921 -336.618 295.319
-327.921 -336.618 295.319 305.167 -373.129 -425.354 311.167 -373.129 -425.354 311.167
-379.129 -425.354 305.167 -379.129 -425.354 317.038 166.666 46.997 323.038 166.666
46.997 323.038 160.666 46.997 317.038 160.666 46.997 188.071 24.759 -301.91 194.071
24.759 -301.91 194.071 18.759 -301.91 188.071 18.759 -301.91 46.438 444.376 -153.503
52.438 444.376 -153.503 52.438 438.376 -153.503 46.438 438.376 -153.503 -276.529
-412.924 -226.257 -270.529 -412.924 -226.257 -270.529 -418.924 -226.257 -276.529
-418.924 -226.257 191.458 -491.049 203.796 197.458 -491.049 203.796 197.458 -497.049
203.796 191.458 -497.049 203.796 341.33 -187.063 219.055 347.33 -187.063 219.055
347.33 -193.063 219.055 341.33 -193.063 219.055 -265.177 168.527 204.773 -259.177
168.527 204.773 -259.177 162.527 204.773 -265.177 162.527 204.773 213.766 238.291
435.883 219.766 238.291 435.883 219.766 232.291 435.883 213.766 232.291 435.883
-294.779 493.051 20.386 -288.779 493.051 20.386 -288.779 487.051 20.386 -294.779
487.051 20.386 -232.492 241.098 338.684 -226.492 241.098 338.684 -226.492 235.098
338.684 -232.492 235.098 338.684 199.515 -446.402 385.956 205.515 -446.402 385.956
205.515 -452.402 385.956 199.515 -452.402 385.956 -296.884 488.077 110.657 -290.884
488.077 110.657 -290.884 482.077 110.657 -296.884 482.077 110.657 -92.355 152.048
-382.721 -86.355 152.048 -382.721 -86.355 146.048 -382.721 -92.355 146.048 -382.721
-20.334 236.826 -89.478 -14.334 236.826 -89.478 -14.334 230.826 -89.478 -20.334
230.826 -89.478 328.787 -81.564 31.128 334.787 -81.564 31.128 334.787 -87.564 31.128
328.787 -87.564 31.128 62.399 115.732 -111.786 68.399 115.732 -111.786 68.399 109.732
-111.786 62.399 109.732 -111.786 -490.244 209.665 -362.488 -484.244 209.665 -362.488
-484.244 203.665 -362.488 -490.244 203.665 -362.488 -166.025 490.427 -358.337 -160.025
490.427 -358.337 -160.025 484.427 -358.337 -166.025 484.427 -358.337 233.084 315.653
-196.93 239.084 315.653 -196.93 239.084 309.653 -196.93 233.084 309.653 -196.93
-436.258 214.731 -210.449 -430.258 214.731 -210.449 -430.258 208.731 -210.449 -436.258
208.731 -210.449 255.423 192.178 366.73 261.423 192.178 366.73 261.423 186.178 366.73
255.423 186.178 366.73 -160.013 -418.143 265.289 -154.013 -418.143 265.289 -154.013
-424.143 265.289 -160.013 -424.143 265.289 -426.004 -82.236 -449.371 -420.004 -82.236
-449.371 -420.004 -88.236 -449.371 -426.004 -88.236 -449.371 19.919 -237.814 -114.746
25.919 -237.814 -114.746 25.919 -243.814 -114.746 19.919 -243.814 -114.746 -96.018
-59.134 74.31 -90.018 -59.134 74.31 -90.018 -65.134 74.31 -96.018 -65.134 74.31
168.112 62.967 332.367 174.112 62.967 332.367 174.112 56.967 332.367 168.112 56.967
332.367 -291.879 -430.228 271.576 -285.879 -430.228 271.576 -285.879 -436.228 271.576
-291.879 -436.228 271.576 261.557 96.689 -450.928 267.557 96.689 -450.928 267.557
90.689 -450.928 261.557 90.689 -450.928 355.429 -319.174 -143.799 361.429 -319.174
-143.799 361.429 -325.174 -143.799 355.429 -325.174 -143.799 260.489 -474.02 278.564
266.489 -474.02 278.564 266.489 -480.02 278.564 260.489 -480.02 278.564 426.443
-86.294 405.823 432.443 -86.294 405.823 432.443 -92.294 405.823 426.443 -92.294
405.823 108.359 -414.908 -247.62 114.359 -414.908 -247.62 114.359 -420.908 -247.62
108.359 -420.908 -247.62 -50.852 302.896 -239.105 -44.852 302.896 -239.105 -44.852
296.896 -239.105 -50.852 296.896 -239.105 451.742 189.554 -77.026 457.742 189.554
-77.026 457.742 183.554 -77.026 451.742 183.554 -77.026 -429.453 -8.2 489.777 -423.453
-8.2 489.777 -423.453 -14.2 489.777 -429.453 -14.2 489.777 490.835 260.69 -193.848
496.835 260.69 -193.848 496.835 254.69 -193.848 490.835 254.69 -193.848 468.161
14.719 480.194 474.161 14.719 480.194 474.161 8.719 480.194 468.161 8.719 480.194
-494.303 33.548 54.626 -488.303 33.548 54.626 -488.303 27.548 54.626 -494.303 27.548
54.626 307.211 -265.707 -296.722 313.211 -265.707 -296.722 313.211 -271.707 -296.722
307.211 -271.707 -296.722 -121.347 -287.314 456.146 -115.347 -287.314 456.146 -115.347
-293.314 456.146 -121.347 -293.314 456.146 -120.615 17.008 385.254 -114.615 17.008
385.254 -114.615 11.008 385.254 -120.615 11.008 385.254 474.539 14.169 263.153 480.539
14.169 263.153 480.539 8.169 263.153 474.539 8.169 263.153 342.459 238.565 340.607
348.459 238.565 340.607 348.459 232.565 340.607 342.459 232.565 340.607 -328.073
9.348 -261.871 -322.073 9.348 -261.871 -322.073 3.348 -261.871 -328.073 3.348 -261.871
341.513 361.765 189.972 347.513 361.765 189.972 347.513 355.765 189.972 341.513
355.765 189.972 -213.907 390.177 -330.048 -207.907 390.177 -330.048 -207.907 384.177
-330.048 -213.907 384.177 -330.048 -143.808 245.188 -263.855 -137.808 245.188 -263.855
-137.808 239.188 -263.855 -143.808 239.188 -263.855 -288.492 -64.596 498.901 -282.492
-64.596 498.901 -282.492 -70.596 498.901 -288.492 -70.596 498.901 -488.046 -352.042
22.217 -482.046 -352.042 22.217 -482.046 -358.042 22.217 -488.046 -358.042 22.217
-33.67 -308.249 -284.18 -27.67 -308.249 -284.18 -27.67 -314.249 -284.18 -33.67 -314.249
-284.18 438.772 -282.4 -323.12 444.772 -282.4 -323.12 444.772 -288.4 -323.12 438.772
-288.4 -323.12 -435.251 325.083 -10.254 -429.251 325.083 -10.254 -429.251 319.083
-10.254 -435.251 319.083 -10.254 -316.507 -288.229 184.906 -310.507 -288.229 184.906
-310.507 -294.229 184.906 -316.507 -294.229 184.906 -97.421 363.138 -338.348 -91.421
363.138 -338.348 -91.421 357.138 -338.348 -97.421 357.138 -338.348 -188.974 -68.198
-168.06 -182.974 -68.198 -168.06 -182.974 -74.198 -168.06 -188.974 -74.198 -168.06
-256.967 -227.621 438.263 -250.967 -227.621 438.263 -250.967 -233.621 438.263 -256.967
-233.621 438.263 -217.478 -32.98 387.36 -211.478 -32.98 387.36 -211.478 -38.98 387.36
-217.478 -38.98 387.36 54.068 -389.365 -41.931 60.068 -389.365 -41.931 60.068 -395.365
-41.931 54.068 -395.365 -41.931 -391.58 -18.454 231.445 -385.58 -18.454 231.445
-385.58 -24.454 231.445 -391.58 -24.454 231.445 -493.082 499.063 5.127 -487.082
499.063 5.127 -487.082 493.063 5.127 -493.082 493.063 5.127 -240.213 -447.806 -270.996
-234.213 -447.806 -270.996 -234.213 -453.806 -270.996 -240.213 -453.806 -270.996
-483.927 486.429 140.686 -477.927 486.429 140.686 -477.927 480.429 140.686 -483.927
480.429 140.686 11.099 106.333 325.104 17.099 106.333 325.104 17.099 100.333 325.104
11.099 100.333 325.104 415.671 -337.271 31.708 421.671 -337.271 31.708 421.671 -343.271
31.708 415.671 -343.271 31.708 405.02 -59.469 215.912 411.02 -59.469 215.912 411.02
-65.469 215.912 405.02 -65.469 215.912 343.771 -259.573 406.799 349.771 -259.573
406.799 349.771 -265.573 406.799 343.771 -265.573 406.799 -499.124 -252.341 -347.717
-493.124 -252.341 -347.717 -493.124 -258.341 -347.717 -499.124 -258.341 -347.717
277.09 -114.981 -15.045 283.09 -114.981 -15.045 283.09 -120.981 -15.045 277.09 -120.981
-15.045 116.507 168.985 92.194 122.507 168.985 92.194 122.507 162.985 92.194 116.507
162.985 92.194 42.013 470.834 -469.879 48.013 470.834 -469.879 48.013 464.834 -469.879
42.013 464.834 -469.879 -473.673 -260.123 -345.337 -467.673 -260.123 -345.337 -467.673
-266.123 -345.337 -473.673 -266.123 -345.337 -346.079 282.114 6.042 -340.079 282.114
6.042 -340.079 276.114 6.042 -346.079 276.114 6.042 -342.874 342.996 -233.307 -336.874
342.996 -233.307 -336.874 336.996 -233.307 -342.874 336.996 -233.307 -372.385 104.563
269.592 -366.385 104.563 269.592 -366.385 98.563 269.592 -372.385 98.563 269.592
357.535 -457.541 -337.311 363.535 -457.541 -337.311 363.535 -463.541 -337.311 357.535
-463.541 -337.311 -416.696 -221.731 468.384 -410.696 -221.731 468.384 -410.696 -227.731
468.384 -416.696 -227.731 468.384 427.847 -427.664 -383.148 433.847 -427.664 -383.148
433.847 -433.664 -383.148 427.847 -433.664 -383.148 169.852 -260.702 -71.503 175.852
-260.702 -71.503 175.852 -266.702 -71.503 169.852 -266.702 -71.503 -88.785 -80.771
-412.994 -82.785 -80.771 -412.994 -82.785 -86.771 -412.994 -88.785 -86.771 -412.994
-334.879 -16.043 452.026 -328.879 -16.043 452.026 -328.879 -22.043 452.026 -334.879
-22.043 452.026 290.213 -4.538 450.897 296.213 -4.538 450.897 296.213 -10.538 450.897
290.213 -10.538 450.897 215.994 377.908 220.428 221.994 377.908 220.428 221.994
371.908 220.428 215.994 371.908 220.428 -171.854 -28.769 346.436 -165.854 -28.769
346.436 -165.854 -34.769 346.436 -171.854 -34.769 346.436 176.108 419.534 -459.93
182.108 419.534 -459.93 182.108 413.534 -459.93 176.108 413.534 -459.93 468.68 47.464
-90.851 474.68 47.464 -90.851 474.68 41.464 -90.851 468.68 41.464 -90.851 7.651
86.862 97.961 13.651 86.862 97.961 13.651 80.862 97.961 7.651 80.862 97.961 -416.422
-70.792 -436.676 -410.422 -70.792 -436.676 -410.422 -76.792 -436.676 -416.422 -76.792
-436.676 365.195 366.007 -156.25 371.195 366.007 -156.25 371.195 360.007 -156.25
365.195 360.007 -156.25 -435.465 -371.237 -413.788 -429.465 -371.237 -413.788 -429.465
-377.237 -413.788 -435.465 -377.237 -413.788 -105.478 -390.494 -299.469 -99.478
-390.494 -299.469 -99.478 -396.494 -299.469 -105.478 -396.494 -299.469 -87.839 -387.564
-442.078 -81.839 -387.564 -442.078 -81.839 -393.564 -442.078 -87.839 -393.564 -442.078
-412.973 123.88 -337.769 -406.973 123.88 -337.769 -406.973 117.88 -337.769 -412.973
117.88 -337.769 212.21 330.332 155.365 218.21 330.332 155.365 218.21 324.332 155.365
212.21 324.332 155.365 -148.416 465.952 77.728 -142.416 465.952 77.728 -142.416
459.952 77.728 -148.416 459.952 77.728 328.574 -40.579 172.516 334.574 -40.579 172.516
334.574 -46.579 172.516 328.574 -46.579 172.516 429.495 -38.382 -316.681 435.495
-38.382 -316.681 435.495 -44.382 -316.681 429.495 -44.382 -316.681 409.506 371.774
275.543 415.506 371.774 275.543 415.506 365.774 275.543 409.506 365.774 275.543
-493.936 70.23 -155.884 -487.936 70.23 -155.884 -487.936 64.23 -155.884 -493.936
64.23 -155.884 25.168 -462.607 457.336 31.168 -462.607 457.336 31.168 -468.607 457.336
25.168 -468.607 457.336 491.69 -465.414 131.714 497.69 -465.414 131.714 497.69 -471.414
131.714 491.69 -471.414 131.714 52.756 408.579 -436.523 58.756 408.579 -436.523
58.756 402.579 -436.523 52.756 402.579 -436.523 -419.565 -103.445 422.211 -413.565
-103.445 422.211 -413.565 -109.445 422.211 -419.565 -109.445 422.211 -72.397 436.472
-251.373 -66.397 436.472 -251.373 -66.397 430.472 -251.373 -72.397 430.472 -251.373
-31.473 56.253 -229.645 -25.473 56.253 -229.645 -25.473 50.253 -229.645 -31.473
50.253 -229.645 -291.361 -135.245 410.98 -285.361 -135.245 410.98 -285.361 -141.245
410.98 -291.361 -141.245 410.98 157.706 225.382 29.175 163.706 225.382 29.175 163.706
219.382 29.175 157.706 219.382 29.175 190.268 454.752 170.837 196.268 454.752 170.837
196.268 448.752 170.837 190.268 448.752 170.837 -301.798 2.176 161.987 -295.798
2.176 161.987 -295.798 -3.824 161.987 -301.798 -3.824 161.987 153.219 -52.847 -70.526
159.219 -52.847 -70.526 159.219 -58.847 -70.526 153.219 -58.847 -70.526 -324.838
501.199 64.362 -318.838 501.199 64.362 -318.838 495.199 64.362 -324.838 495.199
64.362 -87.869 -19.095 93.658 -81.869 -19.095 93.658 -81.869 -25.095 93.658 -87.869
-25.095 93.658 -171.182 -371.115 96.405 -165.182 -371.115 96.405 -165.182 -377.115
96.405 -171.182 -377.115 96.405 -290.048 -2.432 -197.327 -284.048 -2.432 -197.327
-284.048 -8.432 -197.327 -290.048 -8.432 -197.327 52.939 -167.624 53.192 58.939
-167.624 53.192 58.939 -173.624 53.192 52.939 -173.624 53.192 354.605 480.02 -424.377
360.605 480.02 -424.377 360.605 474.02 -424.377 354.605 474.02 -424.377 -239.633
88.144 -409.821 -233.633 88.144 -409.821 -233.633 82.144 -409.821 -239.633 82.144
-409.821 -82.163 339.182 328.705 -76.163 339.182 328.705 -76.163 333.182 328.705
-82.163 333.182 328.705 -136.514 -334.677 -196.014 -130.514 -334.677 -196.014 -130.514
-340.677 -196.014 -136.514 -340.677 -196.014 442.679 -10.641 325.104 448.679 -10.641
325.104 448.679 -16.641 325.104 442.679 -16.641 325.104 -481.485 418.344 364.655
-475.485 418.344 364.655 -475.485 412.344 364.655 -481.485 412.344 364.655 -439.127
273.05 432.861 -433.127 273.05 432.861 -433.127 267.05 432.861 -439.127 267.05 432.861
-51.462 163.37 -65.918 -45.462 163.37 -65.918 -45.462 157.37 -65.918 -51.462 157.37
-65.918 -169.443 -469.931 210.205 -163.443 -469.931 210.205 -163.443 -475.931 210.205
-169.443 -475.931 210.205 216.025 193.979 209.045 222.025 193.979 209.045 222.025
187.979 209.045 216.025 187.979 209.045 -410.043 381.693 -67.596 -404.043 381.693
-67.596 -404.043 375.693 -67.596 -410.043 375.693 -67.596 389.303 322.305 421.021
395.303 322.305 421.021 395.303 316.305 421.021 389.303 316.305 421.021 312.765
-158.682 -151.276 318.765 -158.682 -151.276 318.765 -164.682 -151.276 312.765 -164.682
-151.276 -241.525 114.755 134.308 -235.525 114.755 134.308 -235.525 108.755 134.308
-241.525 108.755 134.308 -31.32 -204.855 -165.436 -25.32 -204.855 -165.436 -25.32
-210.855 -165.436 -31.32 -210.855 -165.436 236.685 353.037 335.815 242.685 353.037
335.815 242.685 347.037 335.815 236.685 347.037 335.815 -137.613 342.722 309.448
-131.613 342.722 309.448 -131.613 336.722 309.448 -137.613 336.722 309.448 450.308
315.073 -275.818 456.308 315.073 -275.818 456.308 309.073 -275.818 450.308 309.073
-275.818 -25.614 -423.544 -51.025 -19.614 -423.544 -51.025 -19.614 -429.544 -51.025
-25.614 -429.544 -51.025 -92.722 363.657 413.696 -86.722 363.657 413.696 -86.722
357.657 413.696 -92.722 357.657 413.696 77.627 -268.454 456.085 83.627 -268.454
456.085 83.627 -274.454 456.085 77.627 -274.454 456.085 -342.325 -324.057 -409.821
-336.325 -324.057 -409.821 -336.325 -330.057 -409.821 -342.325 -330.057 -409.821
-14.658 -117.636 -404.266 -8.658 -117.636 -404.266 -8.658 -123.636 -404.266 -14.658
-123.636 -404.266 -348.062 -128.958 -380.737 -342.062 -128.958 -380.737 -342.062
-134.958 -380.737 -348.062 -134.958 -380.737 317.465 121.225 -35.126 323.465 121.225
-35.126 323.465 115.225 -35.126 317.465 115.225 -35.126 ] }
coordIndex [ 
0,1,2,3,-1 
4,5,6,7,-1 
8,9,10,11,-1 
12,13,14,15,-1 
16,17,18,19,-1 
20,21,22,23,-1 
24,25,26,27,-1 
28,29,30,31,-1 
32,33,34,35,-1 
36,37,38,39,-1 
40,41,42,43,-1 
44,45,46,47,-1 
48,49,50,51,-1 
52,53,54,55,-1 
56,57,58,59,-1 
60,61,62,63,-1 
64,65,66,67,-1 
68,69,70,71,-1 
72,73,74,75,-1 
76,77,78,79,-1 
80,81,82,83,-1 
84,85,86,87,-1 
88,89,90,91,-1 
92,93,94,95,-1 
96,97,98,99,-1 
100,101,102,103,-1 
104,105,106,107,-1 
108,109,110,111,-1 
112,113,114,115,-1 
116,117,118,119,-1 
120,121,122,123,-1 
124,125,126,127,-1 
128,129,130,131,-1 
132,133,134,135,-1 
136,137,138,139,-1 
140,141,142,143,-1 
144,145,146,147,-1 
148,149,150,151,-1 
152,153,154,155,-1 
156,157,158,159,-1 
160,161,162,163,-1 
164,165,166,167,-1 
168,169,170,171,-1 
172,173,174,175,-1 
176,177,178,179,-1 
180,181,182,183,-1 
184,185,186,187,-1 
188,189,190,191,-1 
192,193,194,195,-1 
196,197,198,199,-1 
200,201,202,203,-1 
204,205,206,207,-1 
208,209,210,211,-1 
212,213,214,215,-1 
216,217,218,219,-1 
220,221,222,223,-1 
224,225,226,227,-1 
228,229,230,231,-1 
232,233,234,235,-1 
236,237,238,239,-1 
240,241,242,243,-1 
244,245,246,247,-1 
248,249,250,251,-1 
252,253,254,255,-1 
256,257,258,259,-1 
260,261,262,263,-1 
264,265,266,267,-1 
268,269,270,271,-1 
272,273,274,275,-1 
276,277,278,279,-1 
280,281,282,283,-1 
284,285,286,287,-1 
288,289,290,291,-1 
292,293,294,295,-1 
296,297,298,299,-1 
300,301,302,303,-1 
304,305,306,307,-1 
308,309,310,311,-1 
312,313,314,315,-1 
316,317,318,319,-1 
320,321,322,323,-1 
324,325,326,327,-1 
328,329,330,331,-1 
332,333,334,335,-1 
336,337,338,339,-1 
340,341,342,343,-1 
344,345,346,347,-1 
348,349,350,351,-1 
352,353,354,355,-1 
356,357,358,359,-1 
360,361,362,363,-1 
364,365,366,367,-1 
368,369,370,371,-1 
372,373,374,375,-1 
376,377,378,379,-1 
380,381,382,383,-1 
384,385,386,387,-1 
388,389,390,391,-1 
392,393,394,395,-1 
396,397,398,399,-1 
400,401,402,403,-1 
404,405,406,407,-1 
408,409,410,411,-1 
412,413,414,415,-1 
416,417,418,419,-1 
420,421,422,423,-1 
424,425,426,427,-1 
428,429,430,431,-1 
432,433,434,435,-1 
436,437,438,439,-1 
440,441,442,443,-1 
444,445,446,447,-1 
448,449,450,451,-1 
452,453,454,455,-1 
456,457,458,459,-1 
460,461,462,463,-1 
464,465,466,467,-1 
468,469,470,471,-1 
472,473,474,475,-1 
476,477,478,479,-1 
480,481,482,483,-1 
484,485,486,487,-1 
488,489,490,491,-1 
492,493,494,495,-1 
496,497,498,499,-1 
500,501,502,503,-1 
504,505,506,507,-1 
508,509,510,511,-1 
512,513,514,515,-1 
516,517,518,519,-1 
520,521,522,523,-1 
524,525,526,527,-1 
528,529,530,531,-1 
532,533,534,535,-1 
536,537,538,539,-1 
540,541,542,543,-1 
544,545,546,547,-1 
548,549,550,551,-1 
552,553,554,555,-1 
556,557,558,559,-1 
560,561,562,563,-1 
564,565,566,567,-1 
568,569,570,571,-1 
572,573,574,575,-1 
576,577,578,579,-1 
580,581,582,583,-1 
584,585,586,587,-1 
588,589,590,591,-1 
592,593,594,595,-1 
596,597,598,599,-1 
600,601,602,603,-1 
604,605,606,607,-1 
608,609,610,611,-1 
612,613,614,615,-1 
616,617,618,619,-1 
620,621,622,623,-1 
624,625,626,627,-1 
628,629,630,631,-1 
632,633,634,635,-1 
636,637,638,639,-1 
640,641,642,643,-1 
644,645,646,647,-1 
648,649,650,651,-1 
652,653,654,655,-1 
656,657,658,659,-1 
660,661,662,663,-1 
664,665,666,667,-1 
668,669,670,671,-1 
672,673,674,675,-1 
676,677,678,679,-1 
680,681,682,683,-1 
684,685,686,687,-1 
688,689,690,691,-1 
692,693,694,695,-1 
696,697,698,699,-1 
700,701,702,703,-1 
704,705,706,707,-1 
708,709,710,711,-1 
712,713,714,715,-1 
716,717,718,719,-1 
720,721,722,723,-1 
724,725,726,727,-1 
728,729,730,731,-1 
732,733,734,735,-1 
736,737,738,739,-1 
740,741,742,743,-1 
744,745,746,747,-1 
748,749,750,751,-1 
752,753,754,755,-1 
756,757,758,759,-1 
760,761,762,763,-1 
764,765,766,767,-1 
768,769,770,771,-1 
772,773,774,775,-1 
776,777,778,779,-1 
780,781,782,783,-1 
784,785,786,787,-1 
788,789,790,791,-1 
792,793,794,795,-1 
796,797,798,799,-1 
800,801,802,803,-1 
804,805,806,807,-1 
808,809,810,811,-1 
812,813,814,815,-1 
816,817,818,819,-1 
820,821,822,823,-1 
824,825,826,827,-1 
828,829,830,831,-1 
832,833,834,835,-1 
836,837,838,839,-1 
840,841,842,843,-1 
844,845,846,847,-1 
848,849,850,851,-1 
852,853,854,855,-1 
856,857,858,859,-1 
860,861,862,863,-1 
864,865,866,867,-1 
868,869,870,871,-1 
872,873,874,875,-1 
876,877,878,879,-1 
880,881,882,883,-1 
884,885,886,887,-1 
888,889,890,891,-1 
892,893,894,895,-1 
896,897,898,899,-1 
900,901,902,903,-1 
904,905,906,907,-1 
908,909,910,911,-1 
912,913,914,915,-1 
916,917,918,919,-1 
920,921,922,923,-1 
924,925,926,927,-1 
928,929,930,931,-1 
932,933,934,935,-1 
936,937,938,939,-1 
940,941,942,943,-1 
944,945,946,947,-1 
948,949,950,951,-1 
952,953,954,955,-1 
956,957,958,959,-1 
960,961,962,963,-1 
964,965,966,967,-1 
968,969,970,971,-1 
972,973,974,975,-1 
976,977,978,979,-1 
980,981,982,983,-1 
984,985,986,987,-1 
988,989,990,991,-1 
992,993,994,995,-1 
996,997,998,999,-1 


]
ccw FALSE
solid FALSE
texCoordIndex [ 0,1,2,3,-1 
0,1,2,3,-1 
0,1,2,3,-1 
0,1,2,3,-1 
0,1,2,3,-1 
0,1,2,3,-1 
0,1,2,3,-1 
0,1,2,3,-1 
0,1,2,3,-1 
0,1,2,3,-1 
0,1,2,3,-1 
0,1,2,3,-1 
0,1,2,3,-1 
0,1,2,3,-1 
0,1,2,3,-1 
0,1,2,3,-1 
0,1,2,3,-1 
0,1,2,3,-1 
0,1,2,3,-1 
0,1,2,3,-1 
0,1,2,3,-1 
0,1,2,3,-1 
0,1,2,3,-1 
0,1,2,3,-1 
0,1,2,3,-1 
0,1,2,3,-1 
0,1,2,3,-1 
0,1,2,3,-1 
0,1,2,3,-1 
0,1,2,3,-1 
0,1,2,3,-1 
0,1,2,3,-1 
0,1,2,3,-1 
0,1,2,3,-1 
0,1,2,3,-1 
0,1,2,3,-1 
0,1,2,3,-1 
0,1,2,3,-1 
0,1,2,3,-1 
0,1,2,3,-1 
0,1,2,3,-1 
0,1,2,3,-1 
0,1,2,3,-1 
0,1,2,3,-1 
0,1,2,3,-1 
0,1,2,3,-1 
0,1,2,3,-1 
0,1,2,3,-1 
0,1,2,3,-1 
0,1,2,3,-1 
0,1,2,3,-1 
0,1,2,3,-1 
0,1,2,3,-1 
0,1,2,3,-1 
0,1,2,3,-1 
0,1,2,3,-1 
0,1,2,3,-1 
0,1,2,3,-1 
0,1,2,3,-1 
0,1,2,3,-1 
0,1,2,3,-1 
0,1,2,3,-1 
0,1,2,3,-1 
0,1,2,3,-1 
0,1,2,3,-1 
0,1,2,3,-1 
0,1,2,3,-1 
0,1,2,3,-1 
0,1,2,3,-1 
0,1,2,3,-1 
0,1,2,3,-1 
0,1,2,3,-1 
0,1,2,3,-1 
0,1,2,3,-1 
0,1,2,3,-1 
0,1,2,3,-1 
0,1,2,3,-1 
0,1,2,3,-1 
0,1,2,3,-1 
0,1,2,3,-1 
0,1,2,3,-1 
0,1,2,3,-1 
0,1,2,3,-1 
0,1,2,3,-1 
0,1,2,3,-1 
0,1,2,3,-1 
0,1,2,3,-1 
0,1,2,3,-1 
0,1,2,3,-1 
0,1,2,3,-1 
0,1,2,3,-1 
0,1,2,3,-1 
0,1,2,3,-1 
0,1,2,3,-1 
0,1,2,3,-1 
0,1,2,3,-1 
0,1,2,3,-1 
0,1,2,3,-1 
0,1,2,3,-1 
0,1,2,3,-1 
0,1,2,3,-1 
0,1,2,3,-1 
0,1,2,3,-1 
0,1,2,3,-1 
0,1,2,3,-1 
0,1,2,3,-1 
0,1,2,3,-1 
0,1,2,3,-1 
0,1,2,3,-1 
0,1,2,3,-1 
0,1,2,3,-1 
0,1,2,3,-1 
0,1,2,3,-1 
0,1,2,3,-1 
0,1,2,3,-1 
0,1,2,3,-1 
0,1,2,3,-1 
0,1,2,3,-1 
0,1,2,3,-1 
0,1,2,3,-1 
0,1,2,3,-1 
0,1,2,3,-1 
0,1,2,3,-1 
0,1,2,3,-1 
0,1,2,3,-1 
0,1,2,3,-1 
0,1,2,3,-1 
0,1,2,3,-1 
0,1,2,3,-1 
0,1,2,3,-1 
0,1,2,3,-1 
0,1,2,3,-1 
0,1,2,3,-1 
0,1,2,3,-1 
0,1,2,3,-1 
0,1,2,3,-1 
0,1,2,3,-1 
0,1,2,3,-1 
0,1,2,3,-1 
0,1,2,3,-1 
0,1,2,3,-1 
0,1,2,3,-1 
0,1,2,3,-1 
0,1,2,3,-1 
0,1,2,3,-1 
0,1,2,3,-1 
0,1,2,3,-1 
0,1,2,3,-1 
0,1,2,3,-1 
0,1,2,3,-1 
0,1,2,3,-1 
0,1,2,3,-1 
0,1,2,3,-1 
0,1,2,3,-1 
0,1,2,3,-1 
0,1,2,3,-1 
0,1,2,3,-1 
0,1,2,3,-1 
0,1,2,3,-1 
0,1,2,3,-1 
0,1,2,3,-1 
0,1,2,3,-1 
0,1,2,3,-1 
0,1,2,3,-1 
0,1,2,3,-1 
0,1,2,3,-1 
0,1,2,3,-1 
0,1,2,3,-1 
0,1,2,3,-1 
0,1,2,3,-1 
0,1,2,3,-1 
0,1,2,3,-1 
0,1,2,3,-1 
0,1,2,3,-1 
0,1,2,3,-1 
0,1,2,3,-1 
0,1,2,3,-1 
0,1,2,3,-1 
0,1,2,3,-1 
0,1,2,3,-1 
0,1,2,3,-1 
0,1,2,3,-1 
0,1,2,3,-1 
0,1,2,3,-1 
0,1,2,3,-1 
0,1,2,3,-1 
0,1,2,3,-1 
0,1,2,3,-1 
0,1,2,3,-1 
0,1,2,3,-1 
0,1,2,3,-1 
0,1,2,3,-1 
0,1,2,3,-1 
0,1,2,3,-1 
0,1,2,3,-1 
0,1,2,3,-1 
0,1,2,3,-1 
0,1,2,3,-1 
0,1,2,3,-1 
0,1,2,3,-1 
0,1,2,3,-1 
0,1,2,3,-1 
0,1,2,3,-1 
0,1,2,3,-1 
0,1,2,3,-1 
0,1,2,3,-1 
0,1,2,3,-1 
0,1,2,3,-1 
0,1,2,3,-1 
0,1,2,3,-1 
0,1,2,3,-1 
0,1,2,3,-1 
0,1,2,3,-1 
0,1,2,3,-1 
0,1,2,3,-1 
0,1,2,3,-1 
0,1,2,3,-1 
0,1,2,3,-1 
0,1,2,3,-1 
0,1,2,3,-1 
0,1,2,3,-1 
0,1,2,3,-1 
0,1,2,3,-1 
0,1,2,3,-1 
0,1,2,3,-1 
0,1,2,3,-1 
0,1,2,3,-1 
0,1,2,3,-1 
0,1,2,3,-1 
0,1,2,3,-1 
0,1,2,3,-1 
0,1,2,3,-1 
0,1,2,3,-1 
0,1,2,3,-1 
0,1,2,3,-1 
0,1,2,3,-1 
0,1,2,3,-1 
0,1,2,3,-1 
0,1,2,3,-1 
0,1,2,3,-1 
0,1,2,3,-1 
0,1,2,3,-1 
0,1,2,3,-1 
0,1,2,3,-1 
0,1,2,3,-1 
0,1,2,3,-1 
0,1,2,3,-1 
0,1,2,3,-1 
0,1,2,3,-1 
0,1,2,3,-1 
]
}
}   

