<?xml version="1.0" encoding="UTF-8"?>
<!DOCTYPE X3D PUBLIC "ISO//Web3D//DTD X3D 3.0//EN" "http://www.web3d.org/specifications/x3d-3.0.dtd">
<X3D xmlns:xsd='http://www.w3.org/2001/XMLSchema-instance' profile='Full' version='3.0' xsd:noNamespaceSchemaLocation='http://www.web3d.org/specifications/x3d-3.0.xsd'>
  <Scene DEF='scene'>
    <WorldInfo info='"Autor: David Sedlacek" "Datum: 8.11.2013"' title='Barevna Krychle'/>
    <Shape DEF='barevnaKrychle' id='barevnaKrychle'>
      <Appearance>
        <Material diffuseColor='.5 .5 .5'>
        </Material>
      </Appearance>
      <Box></Box>
    </Shape>
  </Scene>
</X3D>