#VRML V2.0 utf8

WorldInfo {title "Jiri Zara - Program: Prototypy materialu kovu" }

PROTO Gold []
{ Material {  diffuseColor  1 .9 .5     ambientIntensity 1   
              specularColor 1 1 1       shininess        1 }
}
PROTO Silver []
{ Material {  diffuseColor  .85 .85 .9  ambientIntensity 1
              specularColor 1 1 1       shininess        1 }
}
PROTO Bronze []
{ Material {  diffuseColor  1 .6 .3     ambientIntensity .7
              specularColor 1 1 1       shininess        .7 }
}
