<?xml version="1.0" encoding="UTF-8"?>
<!DOCTYPE X3D PUBLIC "ISO//Web3D//DTD X3D 3.0//EN" "http://www.web3d.org/specifications/x3d-3.0.dtd">
<X3D xmlns:xsd='http://www.w3.org/2001/XMLSchema-instance' profile='Full' version='3.0' xsd:noNamespaceSchemaLocation='http://www.web3d.org/specifications/x3d-3.0.xsd'>
  <Scene DEF='scene'>
    <ProtoDeclare name='MujStolek'>
      <ProtoInterface>
        <field accessType='initializeOnly' name='barva' type='SFColor' value='0.6 0.5 0.1'/>
        <field accessType='initializeOnly' name='posunuti' type='SFVec3f' value='0 0 0'/>
        <field accessType='initializeOnly' name='natoceni' type='SFRotation' value='0 1 0 0'/>
        <field accessType='initializeOnly' name='meritko' type='SFVec3f' value='1 1 1'/>
      </ProtoInterface>
      <ProtoBody>
        <Transform>
          <Transform translation='0 1.1 0'>
            <Shape>
              <Appearance DEF='BARVA'>
                <Material>
                  <IS>
                    <connect nodeField='diffuseColor' protoField='barva'/>
                  </IS>
                </Material>
              </Appearance>
              <Box size='1.2 0.2 1.2'/>
            </Shape>
          </Transform>
          <Transform translation='-0.5 0.5 -0.5'>
            <Shape DEF='NOHA'>
              <Appearance USE='BARVA'/>
              <Cylinder top='false' height='1' radius='0.1'/>
            </Shape>
          </Transform>
          <Transform translation='0.5 0.5 -0.5'>
            <Shape USE='NOHA'/>
          </Transform>
          <Transform translation='-0.5 0.5 0.5'>
            <Shape USE='NOHA'/>
          </Transform>
          <Transform translation='0.5 0.5 0.5'>
            <Shape USE='NOHA'/>
          </Transform>
          <IS>
            <connect nodeField='rotation' protoField='natoceni'/>
            <connect nodeField='scale' protoField='meritko'/>
            <connect nodeField='translation' protoField='posunuti'/>
          </IS>
        </Transform>
      </ProtoBody>
    </ProtoDeclare>
    <WorldInfo title='Jiri Zara - Program: Prototyp stolku'/>
  </Scene>
</X3D>