#VRML V2.0 utf8
# Terrain Tile
# Autogenerated by CreateVRMLTerrain Program on 9/15/98
# N353610.W1232629.140.101.2000.seabeam.wrl
#
## Based on proposed VRML Metadata Convention of 9/1/98 
## EXTERNPROTO Metadata [ 
##		field MFString xmlurl
## 		eventIn MFString set_xmlurl
## 		eventOut MFString xmlurl_changed
## 		eventIn SFString elementID
## 		eventOut MFString elementIDs
## 		eventOut SFString tagName
## 		eventOut MFString attributeNames
## 		eventOut MFString attributeValues
## 		eventOut MFString childElements
## 		eventOut MFString childElementTypes
## 		] "../../metadata.wrl"
## DEF Tile Metadata {
## 		xmlurl [
## 	       "<?xml version='1.0'?>
## 		<Tile 	ID = 'N353610.W1232629.140.101.2000.seabeam.wrl'>
## 			Title = 'Monterey Bay National Marine Sanctuary Terrain Model'
##			Subject = 'VRML Terrain Model'
##			Pulication_Place = 'Monterey, California'
##			Publication_Date = '1998'
##			Creator = 'Greg Leaver'
##			Contributor = 'Don Brutzman and Ray McClain'
##			Originator = 'Naval Postgraduate School'
##			Data_Source = 'NOAA Seabeam Survey'
##			Data_Format = 'Surfer DSAA Export'
##			Datum =  'NAD83' 
##			Ellipsoid = 'GRS 1980'
##			UTM_Zone = '10'
##			North_Bounding_Coordinate_UTM = '4200000 N'
##			South_Bounding_Coordinate_UTM = '3940000 N'
##			West_Bounding_Coordinate_UTM = '460000 W'
##			East_Bounding_Coordinate_UTM = '612000 W'
##			Northwest_Bounding_Coordinate_Latitude  = 'N37d56m4'
##			Southwest_Bounding_Coordinate_Latitude = 'N35d36m1'
##			Northeast_Bounding_Coordinate_Latitude = 'N37d56m2'
##			Southeast_Bounding_Coordinate_Latitude = 'N35d35m5'
##			Northwest_Bounding_Coordinate_Longitude = 'W123d27m1'
##			Southwest_Bounding_Coordinate_Longitude = 'W123d26m2'
##			Northeast_Bounding_Coordinate_Longitude = 'W121d43m3'
##			Southeast_Bounding_Coordinate_Longitude = 'W121d45m4'
##			maxElevation  = '6.50001m'
##			minElevation  = '-3808.92m'
##			postSpacing = '2000m'
##		</Tile>", "../N353610.W1232629.140.101.2000.seabeam.xml"
##		]
##	}
Group {
children [
	Transform { 
	translation 0 0 0
	children [ 
		DEF NavigationMarker Transform {
		bboxSize 25 25 25 
		translation 76000 50000 130000
		scale 800 800 800 
		children [ 
			Anchor { 
				description "click on sphere to remove marker"
 				children [
					Inline { url "../../Icons/spherearrows.wrl" }
					DEF SphereMarker TouchSensor { }
					Inline { url "../../Icons/sphere.wrl" }
					] 
				}  
			Transform { 
				translation 20 0 0 
				children  
					Anchor { 
						url "#E_353610_1232629_140_101_2000"
						description "East View at 2000m. resolution"
						children 
							Billboard { 
								axisOfRotation 0 1 0 
								children  
									Shape { 
										appearance Appearance { 
											material Material { 
												emissiveColor 1.0 1.0 1.0 
												diffuseColor  0.0 0.0 0.0 
											} 
										} 
										geometry Text { 
											string "E"
											fontStyle FontStyle { 
												style "BOLD"
												justify ["MIDDLE","MIDDLE"]
												size 8 
 											}
										} 
 									}
 							}
 					}
				} 
			Transform { 
				translation 0 0 -20 
				children  
					Anchor { 
						url "#N_353610_1232629_140_101_2000"
						description "North View at 2000m resolution"
						children 
							Billboard { 
								axisOfRotation 0 1 0 
								children  
								Shape { 
									appearance Appearance { 
										material Material { 
											emissiveColor 1.0 1.0 1.0 
											diffuseColor  0.0 0.0 0.0 
										} 
									} 
									geometry Text { 
										string "N"
										fontStyle FontStyle { 
											style "BOLD"
											justify ["MIDDLE","MIDDLE"]
											size 8 
										} 
									} 
								} 
						} 
					} 
				} 
			Transform { 
				translation  0 0 20 
				children  
					Anchor { 
					url "#S_353610_1232629_140_101_2000"
						description "South View at 2000m resolution"
						children 
							Billboard { 
								axisOfRotation 0 1 0 
								children  
									Shape { 
										appearance Appearance { 
											material Material { 
												emissiveColor 1.0 1.0 1.0 
												diffuseColor  0.0 0.0 0.0 
											} 
										} 
										geometry Text { 
											string "S"
												fontStyle FontStyle { 
												style "BOLD"
												justify ["MIDDLE","MIDDLE"]
												size 8 
											} 
										} 
									} 
							} 
					}	 
				}	 
			Transform { 
				translation -20 0 0 
				children  
					Anchor { 
						url "#W_353610_1232629_140_101_2000"
						description "West View at 2000m resolution"
						children 
							Billboard { 
								axisOfRotation 0 1 0 
								children  
									Shape { 
										appearance Appearance { 
											material Material { 
												emissiveColor 1.0 1.0 1.0 
												diffuseColor  0.0 0.0 0.0 
											} 
										} 
										geometry Text { 
											string "W"
											fontStyle FontStyle { 
												style "BOLD"
												justify ["MIDDLE","MIDDLE"]
												size 8 
											} 
										} 
									} 
							} 
					} 
				} 
			 Transform {
				translation 0 20 0 
				children  
					Billboard { 
						axisOfRotation 0 1 0 
							children  [
							Shape { 
								appearance Appearance { 
									material Material { 
										emissiveColor 1.0 1.0 1.0 
										diffuseColor  0.0 0.0 0.0 
										} 
								} 
								geometry Text { 
									string ["4070000 N", "536000 E"]
									fontStyle FontStyle { 
										justify ["MIDDLE","MIDDLE"]
										size 6 
									} 
								} 
							 }
							Shape { 
								appearance Appearance { 
									material Material { 
										emissiveColor 1.0 1.0 1.0 
										diffuseColor  0.0 0.0 0.0 
										} 
								} 
								geometry Text { 
									string ["Monterey Bay National Marine Sanctuary", " ", " ", " "]
									fontStyle FontStyle { 
										justify ["MIDDLE","MIDDLE"]
										size 9 
									} 
								} 
							 }
						]
					} 
				} 
				] 
				} 
 		DEF Topography Transform {
		scale 1 1 1
		children [ 
		Shape { 
			appearance Appearance {
				material Material { }
				texture ImageTexture {
					url "../Images/N353610.W1232629.140.101.2000.seabeam.jpg"
				}
			}
			geometry ElevationGrid {
				xDimension 77
				zDimension 131
				xSpacing 2000
				zSpacing 2000
				solid FALSE
				creaseAngle 0.785
				height [
-359 -152 -121 -120 -114 -110 -103 -109 -116 -118 -119 -108 -117 -120 -115 -121 -114 -125 -109 -109 -124 -131 -131 -132 -131 -135 -126 -118 -113 -119 -121 -126 -129 -128 -126 -127 -129 -129 -129 -128 -127 -131 -131 -130 -130 -130 -125 -122 -119 -116 -113 -108 -104 -99 -91 -84 -82 -83 -82 -82 -81 -80 -78 -77 -75 -74 -72 -71 -70 -71 -71 -72 -66 -57 -55 -55 -56 
-294 -145 -125 -122 -119 -112 -104 -104 -114 -116 -118 -106 -115 -119 -114 -120 -105 -114 -108 -120 -132 -133 -131 -133 -133 -129 -117 -112 -120 -122 -127 -130 -127 -127 -126 -127 -130 -130 -128 -128 -128 -132 -131 -129 -129 -130 -125 -122 -119 -116 -112 -108 -103 -99 -91 -86 -84 -83 -81 -81 -81 -79 -78 -76 -74 -73 -72 -71 -70 -70 -71 -71 -63 -56 -55 -54 -55 
-432 -185 -132 -123 -119 -111 -105 -101 -108 -113 -115 -105 -114 -117 -113 -114 -102 -110 -108 -125 -133 -132 -131 -133 -120 -117 -111 -119 -124 -123 -128 -128 -126 -127 -126 -128 -130 -129 -128 -128 -127 -131 -130 -129 -129 -129 -124 -121 -119 -115 -112 -107 -103 -100 -95 -87 -83 -82 -80 -80 -79 -77 -76 -75 -73 -72 -71 -70 -69 -70 -70 -63 -57 -55 -53 -53 -53 
-819 -465 -166 -121 -117 -108 -93 -94 -105 -107 -109 -96 -106 -105 -101 -101 -81 -96 -112 -120 -124 -124 -125 -112 -106 -104 -110 -115 -117 -120 -120 -120 -120 -121 -121 -123 -124 -124 -123 -122 -121 -125 -125 -123 -124 -124 -119 -116 -114 -110 -107 -102 -100 -96 -88 -80 -76 -75 -73 -72 -72 -70 -69 -68 -66 -65 -64 -63 -62 -64 -56 -46 -45 -44 -43 -43 -43 
-828 -472 -193 -131 -121 -114 -102 -100 -105 -106 -107 -90 -100 -106 -87 -94 -79 -107 -112 -114 -119 -120 -105 -101 -96 -106 -107 -110 -115 -115 -114 -114 -114 -116 -115 -116 -118 -118 -117 -115 -115 -118 -118 -117 -118 -118 -113 -110 -108 -104 -100 -98 -94 -89 -81 -73 -69 -68 -66 -66 -65 -64 -63 -61 -60 -59 -58 -57 -56 -57 -48 -40 -40 -38 -37 -37 -37 
-1023 -631 -286 -163 -132 -123 -115 -106 -111 -109 -109 -88 -98 -109 -90 -91 -94 -114 -112 -114 -121 -115 -102 -97 -105 -110 -108 -114 -116 -115 -114 -115 -116 -117 -115 -116 -118 -117 -115 -115 -114 -118 -118 -117 -117 -118 -113 -110 -107 -105 -101 -97 -93 -88 -81 -73 -68 -66 -65 -65 -64 -63 -62 -61 -60 -58 -57 -56 -56 -49 -41 -40 -40 -38 -37 -36 -37 
-1214 -972 -660 -332 -177 -137 -121 -113 -120 -115 -112 -84 -109 -102 -84 -108 -103 -114 -112 -116 -115 -105 -93 -106 -109 -112 -113 -115 -117 -116 -115 -117 -117 -117 -116 -117 -117 -116 -115 -115 -114 -118 -118 -117 -117 -118 -113 -109 -109 -106 -102 -97 -93 -88 -80 -72 -67 -65 -64 -64 -64 -63 -61 -60 -59 -58 -57 -56 -57 -48 -40 -40 -39 -38 -36 -36 -36 
-1400 -1211 -928 -681 -485 -232 -147 -121 -129 -122 -120 -95 -117 -113 -97 -122 -106 -116 -114 -115 -107 -96 -105 -112 -110 -116 -112 -112 -114 -113 -113 -113 -113 -113 -112 -111 -112 -112 -111 -110 -109 -109 -111 -112 -112 -112 -108 -104 -104 -102 -98 -93 -89 -84 -76 -67 -62 -61 -60 -60 -60 -58 -57 -56 -55 -53 -52 -51 -46 -42 -40 -39 -38 -37 -35 -35 -35 
-1562 -1374 -1201 -1058 -740 -669 -321 -183 -131 -114 -111 -93 -100 -98 -103 -107 -99 -113 -109 -101 -92 -102 -106 -126 -121 -117 -112 -113 -115 -115 -114 -114 -114 -113 -111 -112 -113 -112 -111 -111 -110 -110 -112 -113 -113 -114 -109 -108 -107 -103 -100 -95 -90 -84 -76 -68 -63 -62 -61 -61 -61 -60 -58 -57 -56 -55 -53 -48 -45 -45 -44 -43 -42 -40 -39 -38 -39 
-1701 -1506 -1442 -1236 -1100 -999 -764 -589 -219 -137 -125 -102 -105 -120 -106 -120 -110 -125 -109 -99 -113 -117 -134 -135 -127 -126 -123 -125 -128 -127 -126 -126 -125 -124 -123 -124 -125 -125 -124 -123 -122 -122 -124 -127 -125 -126 -121 -120 -119 -115 -111 -106 -101 -96 -87 -79 -75 -73 -72 -72 -72 -70 -69 -68 -66 -66 -59 -53 -54 -54 -54 -52 -51 -50 -48 -48 -48 
-1841 -1721 -1592 -1507 -1323 -1166 -1042 -726 -493 -428 -195 -140 -123 -106 -110 -122 -110 -110 -96 -108 -117 -131 -134 -127 -123 -124 -122 -125 -127 -127 -125 -124 -123 -123 -122 -123 -124 -125 -124 -123 -122 -122 -126 -125 -125 -126 -122 -120 -118 -114 -109 -104 -99 -94 -86 -77 -73 -72 -70 -70 -70 -69 -67 -66 -65 -65 -58 -51 -52 -53 -52 -51 -50 -48 -47 -46 -47 
-1987 -1844 -1773 -1569 -1593 -1427 -1125 -954 -908 -677 -559 -460 -175 -101 -89 -109 -82 -79 -87 -94 -109 -111 -105 -103 -102 -104 -103 -105 -106 -105 -103 -102 -101 -101 -100 -101 -102 -101 -101 -100 -99 -99 -104 -104 -103 -105 -100 -98 -95 -91 -87 -82 -78 -72 -64 -56 -51 -50 -48 -49 -50 -49 -48 -46 -45 -41 -37 -35 -36 -37 -36 -35 -34 -32 -30 -30 -30 
-2123 -2030 -1956 -1840 -1547 -1479 -1330 -1056 -1170 -1107 -986 -611 -363 -157 -95 -106 -76 -92 -102 -116 -115 -108 -105 -106 -105 -106 -106 -107 -107 -106 -104 -104 -103 -102 -101 -102 -103 -103 -101 -102 -104 -106 -107 -107 -108 -109 -103 -100 -97 -93 -89 -84 -79 -74 -66 -57 -52 -51 -49 -50 -52 -50 -49 -47 -45 -42 -40 -39 -40 -41 -40 -38 -37 -35 -34 -33 -33 
-2310 -2195 -2066 -2010 -1892 -1627 -1332 -1168 -1331 -1117 -824 -837 -755 -376 -167 -107 -87 -108 -115 -108 -106 -105 -106 -107 -107 -109 -107 -107 -108 -106 -105 -105 -104 -104 -102 -103 -105 -104 -101 -104 -107 -106 -108 -109 -109 -109 -103 -100 -97 -93 -89 -84 -80 -74 -66 -57 -53 -52 -49 -51 -52 -50 -49 -45 -43 -41 -39 -38 -39 -40 -39 -38 -37 -35 -33 -33 -33 
-2449 -2239 -2317 -2152 -1903 -1565 -1477 -1353 -1420 -1148 -1039 -1055 -929 -666 -476 -167 -94 -101 -100 -103 -103 -104 -104 -106 -107 -106 -104 -105 -106 -105 -104 -103 -102 -102 -101 -102 -105 -104 -102 -104 -103 -104 -106 -107 -107 -106 -100 -97 -95 -91 -87 -82 -78 -72 -64 -55 -51 -50 -48 -49 -50 -49 -45 -41 -40 -38 -37 -36 -37 -38 -37 -35 -34 -33 -31 -31 -31 
-2642 -2459 -2478 -2277 -2003 -1882 -1816 -1741 -1518 -1381 -1386 -1247 -1133 -860 -414 -261 -155 -117 -109 -113 -114 -113 -113 -116 -115 -114 -112 -113 -114 -113 -111 -111 -110 -110 -109 -108 -115 -116 -116 -115 -116 -116 -117 -117 -117 -116 -111 -107 -105 -101 -96 -91 -86 -81 -72 -63 -58 -57 -55 -56 -57 -56 -54 -52 -50 -49 -47 -46 -47 -48 -47 -45 -44 -42 -40 -40 -40 
-2806 -2743 -2611 -2447 -2318 -2292 -2081 -1849 -1789 -1721 -1538 -1278 -1131 -947 -652 -680 -344 -144 -102 -104 -105 -107 -104 -104 -102 -102 -101 -102 -103 -102 -101 -100 -99 -100 -100 -100 -101 -103 -101 -102 -102 -101 -102 -103 -103 -103 -98 -95 -92 -88 -84 -79 -74 -69 -61 -51 -47 -46 -43 -45 -46 -43 -41 -40 -38 -36 -35 -36 -37 -36 -35 -34 -33 -31 -30 -29 -29 
-2741 -2582 -2597 -2492 -2420 -2353 -2152 -1792 -1510 -1439 -1300 -1097 -1004 -980 -952 -744 -634 -268 -136 -119 -123 -123 -121 -122 -121 -122 -121 -123 -125 -124 -124 -123 -121 -121 -121 -122 -124 -123 -123 -123 -123 -121 -122 -123 -123 -123 -118 -115 -112 -108 -104 -99 -94 -88 -79 -69 -65 -64 -62 -62 -59 -54 -53 -52 -50 -48 -47 -48 -49 -48 -47 -46 -45 -43 -42 -41 -41 
-2604 -2378 -2141 -2093 -2238 -2177 -1988 -1809 -1678 -1416 -1243 -1137 -1083 -1127 -1047 -889 -712 -558 -274 -145 -122 -122 -122 -124 -123 -124 -123 -125 -127 -126 -126 -125 -123 -123 -122 -125 -125 -126 -125 -125 -123 -122 -124 -125 -125 -125 -120 -117 -114 -110 -106 -100 -95 -89 -80 -70 -66 -65 -62 -60 -58 -56 -55 -54 -52 -50 -49 -50 -51 -50 -49 -48 -47 -45 -44 -43 -43 
-2594 -2446 -2139 -1929 -1945 -1869 -1698 -1652 -1548 -1411 -1328 -1289 -1234 -1228 -1056 -992 -882 -636 -432 -207 -127 -121 -123 -125 -124 -125 -124 -126 -128 -126 -124 -123 -122 -122 -123 -123 -125 -125 -123 -122 -122 -121 -123 -124 -124 -124 -120 -116 -113 -109 -105 -99 -94 -88 -79 -69 -64 -63 -57 -55 -56 -54 -53 -52 -50 -48 -47 -48 -49 -48 -47 -46 -45 -43 -42 -41 -41 
-2480 -2288 -2139 -2011 -1945 -1877 -1789 -1737 -1691 -1540 -1433 -1338 -1321 -1295 -1203 -1041 -925 -785 -457 -252 -148 -130 -132 -135 -132 -132 -127 -128 -129 -128 -125 -124 -124 -125 -124 -125 -127 -126 -124 -123 -123 -122 -124 -125 -125 -126 -121 -117 -114 -109 -105 -99 -94 -88 -79 -68 -64 -60 -55 -55 -56 -55 -53 -51 -50 -48 -47 -48 -49 -48 -47 -46 -45 -43 -42 -41 -41 
-2528 -2331 -2294 -2236 -2080 -1948 -1869 -1739 -1655 -1572 -1517 -1440 -1303 -1170 -1025 -866 -726 -627 -522 -368 -213 -153 -150 -151 -141 -136 -131 -131 -133 -131 -128 -127 -127 -126 -125 -126 -126 -125 -124 -123 -122 -121 -125 -125 -124 -124 -119 -115 -111 -107 -102 -97 -91 -85 -75 -65 -62 -63 -61 -62 -62 -60 -58 -56 -54 -52 -51 -53 -54 -53 -51 -49 -48 -46 -44 -43 -43 
-2924 -2670 -2376 -2256 -2074 -1970 -2056 -1941 -1810 -1615 -1438 -1308 -1199 -1116 -1041 -935 -836 -759 -608 -419 -231 -173 -166 -158 -151 -147 -143 -147 -148 -146 -143 -143 -141 -141 -140 -141 -141 -140 -139 -138 -137 -136 -139 -139 -138 -138 -133 -129 -125 -120 -115 -109 -104 -97 -87 -78 -79 -80 -77 -77 -77 -74 -73 -70 -68 -66 -64 -66 -68 -66 -65 -63 -61 -59 -57 -56 -56 
-2728 -2617 -2521 -2417 -2335 -2234 -2088 -1962 -1815 -1756 -1536 -1453 -1358 -1246 -1094 -926 -768 -673 -581 -436 -308 -218 -166 -149 -142 -140 -139 -150 -150 -146 -144 -143 -141 -142 -141 -141 -141 -140 -138 -137 -136 -135 -138 -138 -137 -137 -133 -128 -124 -119 -114 -108 -103 -96 -90 -96 -98 -94 -90 -90 -89 -86 -84 -81 -78 -76 -74 -77 -79 -77 -75 -73 -71 -68 -66 -65 -64 
-2341 -2283 -2381 -2370 -2286 -2192 -2011 -1839 -1846 -1591 -1498 -1418 -1267 -1078 -909 -848 -755 -628 -528 -442 -293 -202 -164 -159 -159 -167 -188 -190 -187 -184 -182 -187 -187 -185 -184 -184 -184 -183 -182 -180 -179 -178 -181 -181 -180 -180 -175 -171 -166 -161 -156 -151 -146 -142 -158 -157 -146 -142 -137 -136 -133 -130 -127 -124 -121 -119 -116 -119 -121 -119 -117 -114 -112 -109 -107 -105 -105 
-2196 -2196 -2264 -2237 -2037 -1886 -1741 -1668 -1570 -1497 -1291 -1226 -1078 -989 -931 -975 -903 -700 -556 -446 -324 -225 -180 -141 -129 -132 -131 -132 -133 -132 -130 -130 -130 -130 -129 -130 -131 -130 -130 -128 -127 -127 -130 -131 -130 -130 -127 -124 -120 -115 -112 -107 -101 -97 -92 -78 -67 -64 -61 -62 -62 -59 -57 -55 -54 -52 -51 -53 -54 -53 -52 -50 -49 -47 -45 -44 -44 
-1862 -2025 -2182 -2050 -1882 -1761 -1672 -1575 -1450 -1322 -1308 -1209 -1043 -961 -844 -756 -701 -632 -550 -475 -388 -294 -213 -153 -132 -132 -129 -129 -130 -129 -128 -128 -128 -127 -126 -127 -129 -128 -127 -126 -125 -126 -130 -130 -129 -130 -125 -122 -119 -114 -109 -103 -99 -92 -79 -65 -58 -55 -52 -53 -53 -51 -49 -47 -45 -44 -43 -44 -46 -44 -43 -42 -41 -39 -38 -37 -37 
-1654 -2031 -2020 -2045 -1863 -1735 -1640 -1579 -1415 -1259 -1144 -1066 -974 -934 -894 -772 -669 -628 -567 -501 -422 -336 -255 -185 -150 -142 -131 -129 -129 -128 -128 -128 -128 -128 -127 -128 -131 -131 -130 -128 -129 -129 -132 -133 -131 -132 -124 -119 -115 -110 -104 -98 -93 -87 -74 -61 -54 -51 -48 -50 -50 -48 -46 -44 -43 -41 -40 -42 -43 -42 -41 -39 -38 -37 -35 -35 -34 
-1785 -1949 -1948 -1932 -1874 -1761 -1668 -1658 -1468 -1226 -1112 -1044 -958 -925 -877 -824 -743 -634 -573 -523 -450 -372 -300 -242 -254 -166 -137 -132 -131 -131 -130 -131 -131 -132 -132 -133 -134 -134 -131 -129 -128 -128 -133 -134 -133 -133 -127 -122 -118 -113 -108 -103 -97 -90 -78 -65 -58 -55 -52 -52 -52 -50 -48 -46 -45 -43 -42 -44 -45 -44 -43 -41 -40 -38 -37 -36 -36 
-1989 -1959 -1911 -1857 -1881 -1804 -1777 -1697 -1567 -1254 -1140 -1045 -1002 -892 -810 -758 -715 -667 -610 -566 -496 -427 -409 -338 -235 -218 -174 -138 -132 -130 -129 -128 -128 -128 -128 -129 -130 -130 -132 -133 -132 -131 -134 -134 -132 -132 -127 -123 -118 -113 -112 -105 -98 -91 -79 -65 -58 -55 -52 -51 -51 -50 -47 -46 -45 -43 -42 -44 -45 -44 -43 -41 -40 -38 -37 -36 -36 
-2065 -1605 -1474 -1796 -1830 -1802 -1828 -1664 -1476 -1405 -1222 -1064 -1005 -908 -836 -778 -727 -716 -655 -739 -653 -580 -426 -335 -343 -307 -188 -129 -124 -127 -127 -127 -128 -134 -135 -137 -140 -140 -139 -136 -135 -134 -136 -136 -134 -134 -129 -125 -121 -116 -112 -105 -99 -94 -80 -65 -58 -55 -52 -51 -51 -50 -47 -46 -45 -43 -43 -45 -45 -44 -43 -41 -40 -39 -37 -36 -37 
-1906 -1227 -1221 -1705 -1894 -1911 -1911 -1629 -1411 -1267 -1151 -1056 -983 -911 -848 -797 -749 -729 -691 -788 -766 -709 -524 -485 -395 -227 -152 -134 -133 -134 -135 -134 -134 -135 -134 -135 -136 -136 -133 -131 -130 -128 -131 -131 -130 -131 -126 -122 -118 -113 -108 -101 -95 -91 -76 -60 -53 -50 -47 -46 -47 -45 -43 -42 -40 -39 -41 -42 -41 -40 -39 -37 -36 -35 -33 -33 -33 
-1615 -1003 -1123 -1642 -1932 -2054 -1909 -1604 -1406 -1271 -1158 -1064 -994 -927 -880 -864 -831 -795 -765 -917 -866 -764 -648 -535 -325 -209 -161 -144 -142 -142 -142 -136 -134 -134 -133 -133 -134 -132 -130 -128 -127 -125 -129 -129 -129 -131 -127 -121 -120 -115 -108 -102 -95 -85 -72 -59 -52 -49 -46 -44 -44 -43 -41 -39 -38 -36 -39 -41 -39 -38 -37 -36 -34 -33 -31 -31 -31 
-1322 -1072 -1442 -1853 -2036 -2157 -1880 -1565 -1396 -1279 -1172 -1099 -1089 -1042 -1087 -1077 -1029 -944 -1020 -847 -657 -663 -584 -423 -308 -228 -183 -151 -143 -143 -142 -141 -140 -140 -138 -138 -138 -137 -136 -134 -132 -131 -135 -136 -135 -134 -129 -124 -123 -119 -112 -105 -98 -88 -74 -62 -54 -51 -47 -46 -46 -44 -42 -40 -39 -37 -40 -42 -41 -40 -38 -37 -36 -34 -32 -32 -32 
-1442 -1678 -1948 -2254 -2371 -2188 -1837 -1542 -1375 -1247 -1336 -1499 -1437 -1376 -1286 -1193 -1133 -1041 -910 -775 -642 -535 -470 -404 -317 -244 -196 -161 -146 -143 -143 -142 -141 -141 -138 -138 -139 -138 -135 -134 -133 -133 -138 -136 -134 -134 -130 -129 -125 -119 -112 -105 -98 -87 -74 -61 -53 -50 -46 -45 -44 -43 -41 -39 -38 -37 -40 -41 -40 -39 -37 -36 -35 -33 -31 -31 -31 
-2193 -2316 -2431 -2534 -2477 -2135 -1996 -1618 -1370 -1232 -1618 -1447 -1173 -1120 -1031 -957 -907 -919 -750 -640 -576 -586 -472 -382 -313 -264 -226 -181 -150 -143 -142 -142 -141 -139 -137 -137 -137 -136 -135 -135 -134 -132 -136 -136 -134 -135 -130 -130 -126 -119 -112 -105 -98 -87 -73 -60 -52 -48 -44 -43 -42 -41 -39 -37 -36 -39 -41 -40 -38 -37 -36 -34 -33 -31 -30 -29 -29 
-2774 -2783 -2782 -2766 -2502 -2040 -1662 -1574 -1512 -1646 -1747 -1294 -1147 -980 -902 -846 -834 -773 -770 -696 -637 -529 -452 -407 -336 -276 -232 -194 -162 -146 -143 -142 -139 -139 -137 -137 -138 -139 -138 -135 -133 -132 -137 -137 -135 -136 -131 -130 -126 -119 -112 -105 -100 -88 -72 -59 -51 -47 -43 -41 -42 -41 -38 -36 -34 -38 -40 -38 -37 -36 -35 -33 -32 -30 -29 -28 -28 
-2815 -2799 -2783 -2578 -2131 -1992 -1776 -1741 -2028 -1800 -1384 -1271 -1147 -992 -865 -819 -778 -731 -672 -625 -572 -508 -450 -397 -346 -298 -260 -224 -183 -153 -142 -139 -138 -138 -136 -138 -139 -137 -136 -134 -133 -133 -137 -136 -134 -134 -130 -130 -125 -118 -111 -104 -99 -86 -70 -57 -48 -45 -41 -37 -39 -38 -35 -34 -33 -37 -38 -36 -35 -34 -33 -31 -30 -28 -27 -26 -27 
-2810 -2726 -2671 -2518 -2253 -1992 -1931 -2164 -1934 -1582 -1419 -1400 -1208 -1073 -946 -899 -789 -719 -654 -610 -556 -503 -451 -399 -360 -314 -272 -235 -200 -172 -144 -138 -139 -138 -135 -135 -136 -135 -135 -134 -132 -131 -135 -134 -132 -133 -128 -127 -123 -116 -109 -102 -91 -80 -68 -54 -45 -42 -38 -34 -35 -35 -32 -30 -34 -37 -35 -34 -33 -32 -30 -29 -28 -26 -25 -24 -24 
-2797 -2807 -2893 -2760 -2348 -2207 -2255 -2324 -1853 -1648 -1557 -1391 -1238 -1137 -1059 -933 -768 -678 -642 -603 -554 -504 -470 -416 -374 -332 -294 -256 -222 -191 -162 -145 -139 -136 -134 -135 -136 -137 -136 -133 -132 -130 -133 -133 -134 -134 -129 -128 -123 -116 -109 -101 -90 -79 -67 -53 -44 -40 -36 -32 -33 -33 -30 -29 -33 -36 -33 -32 -31 -30 -29 -27 -26 -24 -23 -23 -23 
-3007 -3044 -3035 -2872 -2678 -2572 -2411 -2255 -1809 -1646 -1553 -1387 -1265 -1181 -1116 -967 -830 -754 -703 -640 -585 -526 -474 -429 -393 -356 -320 -285 -251 -223 -185 -148 -137 -136 -134 -135 -135 -134 -133 -131 -129 -128 -129 -132 -132 -132 -127 -126 -122 -114 -107 -100 -88 -77 -65 -50 -41 -37 -32 -29 -31 -31 -29 -26 -30 -34 -31 -30 -29 -28 -27 -25 -24 -23 -21 -21 -22 
-3167 -3090 -3067 -2900 -2642 -2505 -2140 -1933 -1783 -1676 -1631 -1509 -1370 -1296 -1250 -1198 -1078 -979 -838 -769 -645 -563 -507 -463 -425 -389 -355 -317 -282 -262 -221 -177 -142 -132 -132 -131 -132 -131 -130 -128 -127 -127 -127 -129 -130 -131 -125 -125 -120 -113 -106 -100 -87 -74 -62 -47 -38 -34 -29 -25 -27 -28 -25 -23 -28 -31 -28 -27 -27 -25 -24 -22 -21 -20 -19 -19 -19 
-3131 -3120 -2937 -2724 -2506 -2351 -2152 -1959 -1836 -1729 -1654 -1712 -1561 -1382 -1298 -1164 -968 -830 -721 -693 -648 -589 -534 -489 -453 -419 -384 -349 -321 -294 -269 -224 -155 -134 -132 -133 -134 -134 -133 -132 -130 -129 -128 -129 -131 -131 -126 -126 -121 -114 -106 -94 -83 -74 -61 -46 -37 -32 -27 -24 -25 -26 -24 -22 -27 -30 -27 -26 -26 -24 -23 -22 -21 -19 -18 -19 -19 
-3170 -3168 -2962 -2895 -2595 -2416 -2266 -2068 -1950 -1886 -1809 -1751 -1723 -1545 -1331 -1082 -827 -736 -689 -653 -622 -586 -549 -516 -480 -443 -412 -380 -357 -353 -324 -258 -172 -136 -130 -131 -133 -132 -131 -131 -128 -128 -127 -128 -129 -130 -124 -124 -120 -112 -105 -91 -80 -71 -58 -43 -34 -29 -24 -20 -22 -23 -21 -20 -25 -27 -25 -24 -23 -22 -21 -19 -18 -17 -16 -16 -17 
-3212 -3207 -3096 -3018 -2751 -2554 -2387 -2268 -2183 -2044 -1951 -1894 -1843 -1625 -1380 -1025 -782 -696 -677 -655 -628 -602 -574 -545 -512 -479 -449 -422 -404 -417 -409 -339 -225 -148 -128 -128 -130 -130 -129 -129 -127 -127 -125 -126 -127 -128 -123 -123 -119 -111 -104 -90 -78 -69 -56 -40 -31 -25 -20 -17 -19 -20 -19 -23 -26 -24 -22 -21 -21 -19 -18 -17 -16 -15 -14 -15 -15 
-3243 -3228 -3199 -3075 -2947 -2722 -2578 -2432 -2319 -2231 -2126 -2047 -1979 -1766 -1521 -1176 -879 -727 -693 -675 -658 -634 -612 -576 -551 -526 -493 -486 -459 -447 -471 -428 -312 -183 -133 -130 -133 -132 -133 -132 -129 -127 -125 -127 -128 -128 -123 -124 -120 -111 -106 -91 -77 -68 -55 -39 -29 -23 -18 -15 -17 -18 -17 -22 -25 -23 -21 -20 -19 -18 -17 -16 -15 -14 -13 -14 -14 
-3279 -3250 -3223 -3168 -3072 -2935 -2805 -2663 -2555 -2438 -2297 -2268 -2067 -1932 -1721 -1426 -1125 -914 -846 -802 -737 -687 -651 -626 -598 -580 -541 -519 -501 -495 -515 -527 -427 -259 -158 -134 -134 -134 -134 -133 -129 -127 -125 -128 -128 -129 -124 -124 -120 -111 -98 -85 -76 -66 -53 -37 -26 -20 -15 -12 -14 -16 -16 -21 -23 -21 -19 -18 -17 -16 -15 -14 -14 -13 -12 -13 -14 
-3270 -3242 -3218 -3188 -3144 -3102 -2964 -2873 -2760 -2642 -2557 -2403 -2259 -2070 -1888 -1621 -1395 -1278 -1234 -1064 -864 -756 -703 -720 -687 -643 -616 -586 -549 -556 -602 -627 -519 -347 -218 -149 -134 -135 -135 -133 -129 -126 -125 -128 -128 -130 -125 -124 -120 -111 -97 -84 -75 -65 -51 -34 -23 -17 -12 -10 -12 -14 -15 -20 -22 -19 -17 -16 -16 -14 -14 -13 -12 -11 -11 -12 -13 
-3291 -3185 -3204 -3164 -3122 -3016 -2941 -2885 -2812 -2754 -2663 -2512 -2298 -2126 -1984 -1819 -1627 -1551 -1387 -1173 -1030 -889 -858 -798 -818 -743 -746 -660 -612 -650 -721 -771 -577 -401 -280 -179 -138 -133 -134 -132 -127 -124 -123 -126 -128 -130 -124 -124 -119 -111 -96 -82 -73 -62 -49 -32 -19 -13 -9 -7 -10 -12 -15 -19 -19 -16 -15 -14 -13 -12 -12 -11 -11 -10 -10 -11 -12 
-3317 -3206 -3132 -3116 -2973 -2771 -2665 -2816 -2762 -2711 -2597 -2509 -2376 -2254 -2132 -1922 -1801 -1635 -1485 -1357 -1310 -1246 -1187 -1117 -1068 -993 -866 -756 -709 -844 -846 -806 -594 -445 -357 -253 -168 -139 -135 -131 -127 -125 -123 -123 -127 -129 -125 -125 -118 -103 -91 -81 -71 -61 -47 -29 -16 -11 -8 -7 -8 -11 -16 -19 -17 -15 -13 -12 -12 -11 -11 -10 -10 -10 -10 -11 -12 
-3328 -3213 -3102 -2890 -2479 -2081 -2082 -2705 -2732 -2638 -2577 -2571 -2510 -2372 -2233 -2125 -1940 -1767 -1771 -1778 -1658 -1526 -1457 -1398 -1346 -1371 -1190 -973 -926 -909 -989 -819 -607 -493 -420 -342 -253 -172 -141 -130 -127 -125 -123 -123 -125 -127 -130 -126 -118 -102 -90 -80 -70 -59 -45 -27 -13 -8 -7 -6 -8 -11 -15 -18 -16 -13 -11 -11 -10 -10 -10 -9 -9 -9 -10 -11 -11 
-3293 -3089 -2919 -2634 -2295 -1861 -2221 -2617 -2639 -2547 -2633 -2687 -2601 -2453 -2409 -2252 -2109 -2054 -2197 -2083 -1840 -1651 -1595 -1553 -1504 -1492 -1346 -1192 -1106 -1126 -993 -777 -622 -537 -474 -412 -345 -268 -186 -143 -129 -124 -122 -121 -119 -117 -170 -148 -109 -99 -89 -79 -68 -58 -43 -24 -10 -6 -4 -4 -7 -10 -14 -16 -14 -11 -9 -9 -8 -8 -8 -8 -8 -8 -8 -8 -9 
-3213 -2989 -2714 -2281 -1959 -2081 -2537 -2565 -2543 -2507 -2639 -2755 -2726 -2632 -2562 -2374 -2290 -2458 -2352 -2069 -1887 -1768 -1747 -1696 -1660 -1530 -1359 -1229 -1265 -1176 -1017 -834 -688 -606 -545 -478 -420 -364 -295 -218 -164 -141 -132 -126 -120 -126 -242 -173 -103 -97 -87 -78 -68 -58 -44 -25 -11 -4 -1 0 0 -3 -5 -5 -5 -3 -2 -2 -4 -5 -6 -6 -7 -7 -7 -7 -8 
-3132 -2872 -2566 -2078 -1879 -2381 -2525 -2506 -2490 -2500 -2611 -2818 -2834 -2788 -2724 -2592 -2629 -2435 -2203 -2077 -1945 -1871 -1894 -1854 -1709 -1462 -1234 -1294 -1337 -1235 -1099 -958 -851 -771 -663 -563 -500 -450 -399 -343 -279 -222 -182 -157 -145 -233 -207 -130 -134 -124 -97 -87 -78 -68 -57 -43 -28 -12 -2 1 0 -1 -2 -3 -3 -2 0 -2 -4 -5 -6 -7 -7 -6 -6 -7 -7 
-3067 -2874 -2538 -2274 -2240 -2610 -2563 -2526 -2525 -2545 -2618 -2871 -2896 -2874 -2857 -2813 -2680 -2418 -2325 -2213 -2164 -2103 -2072 -1894 -1711 -1548 -1409 -1509 -1468 -1307 -1200 -1123 -1104 -1054 -857 -716 -613 -537 -502 -476 -422 -365 -310 -261 -251 -465 -311 -171 -259 -180 -106 -97 -89 -80 -71 -60 -49 -34 -15 -4 -1 0 0 -1 -3 -3 -2 -6 -8 -7 -7 -7 -7 -6 -6 -6 -6 
-3068 -2908 -2788 -2468 -2549 -2761 -2612 -2581 -2586 -2635 -2687 -2915 -2967 -2937 -2919 -2868 -2650 -2505 -2559 -2513 -2437 -2389 -2254 -1974 -1808 -1715 -1710 -1750 -1625 -1475 -1363 -1340 -1331 -1243 -1174 -1033 -863 -701 -668 -712 -623 -530 -448 -411 -538 -520 -345 -374 -315 -174 -124 -107 -95 -89 -83 -74 -65 -55 -42 -28 -16 -7 -4 -5 -10 -11 -12 -16 -15 -11 -8 -7 -7 -6 -6 -7 -7 
-3133 -2902 -2894 -2857 -2899 -2778 -2668 -2683 -2739 -2777 -2807 -2967 -3008 -2998 -2902 -2809 -2733 -2722 -2737 -2734 -2691 -2729 -2325 -2086 -1972 -1897 -1916 -1891 -1733 -1627 -1539 -1583 -1594 -1541 -1380 -1292 -1192 -1068 -1058 -1083 -895 -732 -612 -710 -897 -614 -502 -647 -411 -222 -180 -169 -125 -89 -87 -83 -78 -70 -61 -53 -44 -35 -27 -24 -24 -23 -24 -23 -20 -17 -11 -7 -6 -6 -6 -6 -7 
-3146 -3029 -3060 -2984 -2874 -2840 -2822 -2826 -2907 -2932 -2915 -3018 -3040 -3018 -2891 -2834 -2894 -2871 -2859 -2823 -2794 -2691 -2435 -2266 -2169 -2139 -2137 -1975 -1839 -1788 -1754 -1844 -1817 -1700 -1540 -1512 -1419 -1297 -1343 -1333 -1168 -982 -861 -1189 -1055 -722 -909 -796 -492 -362 -324 -405 -281 -134 -98 -88 -88 -83 -74 -66 -58 -50 -44 -38 -33 -30 -28 -27 -25 -21 -16 -9 -6 -6 -6 -7 -7 
-3161 -3123 -3115 -3036 -3001 -3029 -2988 -2946 -3031 -2970 -3002 -3068 -3076 -3041 -2938 -2912 -2980 -2959 -2939 -2887 -2893 -2716 -2564 -2473 -2390 -2351 -2208 -2138 -2038 -1998 -1988 -2035 -2029 -1889 -1731 -1681 -1567 -1464 -1560 -1475 -1336 -1199 -1147 -1379 -1253 -995 -1162 -1168 -868 -645 -526 -653 -600 -346 -164 -104 -96 -91 -87 -80 -72 -65 -57 -49 -42 -36 -34 -32 -29 -26 -21 -13 -7 -6 -6 -6 -7 
-3294 -3234 -3219 -3201 -3200 -3131 -3129 -3019 -3082 -2996 -3059 -3100 -3110 -3065 -3000 -3010 -3027 -3020 -2990 -2981 -2900 -2703 -2652 -2652 -2594 -2462 -2338 -2354 -2275 -2195 -2219 -2162 -2150 -2034 -1967 -1841 -1743 -1691 -1743 -1600 -1434 -1356 -1447 -1670 -1496 -1346 -1301 -1386 -1121 -671 -801 -1011 -918 -600 -355 -231 -136 -98 -94 -90 -84 -78 -71 -64 -58 -53 -55 -51 -42 -37 -28 -19 -10 -6 -6 -7 -7 
-3417 -3350 -3279 -3293 -3260 -3230 -3212 -3170 -3113 -3076 -3121 -3141 -3141 -3086 -3050 -3055 -3049 -3041 -3028 -3021 -2865 -2758 -2772 -2773 -2722 -2590 -2512 -2535 -2461 -2367 -2378 -2326 -2264 -2158 -2104 -2035 -1923 -1853 -1778 -1692 -1592 -1565 -1744 -1741 -1605 -1540 -1453 -1503 -1191 -783 -1066 -1201 -973 -741 -756 -613 -276 -126 -102 -95 -92 -89 -84 -78 -74 -74 -95 -86 -61 -53 -42 -28 -14 -7 -6 -6 -6 
-3467 -3435 -3388 -3337 -3292 -3277 -3266 -3212 -3146 -3140 -3174 -3176 -3162 -3123 -3099 -3084 -3080 -3075 -3063 -3012 -2869 -2832 -2853 -2849 -2780 -2674 -2637 -2647 -2553 -2489 -2434 -2401 -2318 -2269 -2179 -2117 -2015 -1982 -1847 -1744 -1727 -1679 -1890 -1924 -1717 -1641 -1715 -1555 -1149 -940 -1274 -1244 -1157 -1123 -1105 -790 -426 -240 -131 -100 -99 -95 -91 -86 -81 -119 -136 -94 -72 -67 -59 -45 -25 -9 -5 -6 -8 
-3474 -3446 -3415 -3379 -3354 -3336 -3293 -3252 -3236 -3211 -3212 -3200 -3179 -3157 -3130 -3111 -3112 -3098 -3073 -3005 -2949 -2923 -2913 -2884 -2833 -2799 -2754 -2693 -2587 -2550 -2515 -2457 -2363 -2323 -2263 -2148 -2099 -2000 -1889 -1868 -1870 -1778 -1965 -1968 -1834 -1844 -1819 -1548 -1245 -1258 -1498 -1495 -1388 -1280 -1106 -781 -591 -424 -214 -119 -100 -94 -85 -89 -121 -263 -201 -73 -73 -73 -74 -84 -58 -22 -11 -5 -11 
-3479 -3455 -3437 -3415 -3401 -3386 -3348 -3308 -3278 -3258 -3248 -3229 -3208 -3175 -3153 -3146 -3130 -3107 -3036 -3005 -2999 -2984 -2932 -2898 -2865 -2830 -2780 -2729 -2654 -2596 -2555 -2489 -2435 -2356 -2266 -2207 -2125 -2055 -2042 -2005 -1911 -1872 -2019 -2048 -1990 -1903 -1723 -1480 -1393 -1558 -1690 -1567 -1192 -907 -742 -598 -475 -489 -397 -215 -161 -174 -143 -219 -388 -331 -184 -142 -144 -154 -150 -161 -111 -53 -31 -7 -8 
-3500 -3476 -3470 -3452 -3427 -3415 -3395 -3355 -3327 -3302 -3284 -3251 -3219 -3194 -3186 -3168 -3133 -3081 -3033 -3041 -3020 -2956 -2922 -2908 -2850 -2778 -2738 -2705 -2644 -2587 -2551 -2500 -2432 -2356 -2269 -2153 -2110 -2149 -2146 -2016 -1983 -1992 -2106 -2176 -1995 -1793 -1678 -1573 -1624 -1756 -1758 -1360 -968 -766 -634 -536 -485 -645 -647 -462 -469 -554 -436 -592 -769 -562 -461 -455 -416 -392 -295 -188 -121 -49 -10 -16 -22 
-3518 -3501 -3483 -3469 -3452 -3435 -3414 -3388 -3355 -3330 -3292 -3263 -3242 -3232 -3190 -3141 -3072 -3052 -3068 -3048 -3001 -2962 -2940 -2902 -2752 -2658 -2633 -2621 -2552 -2521 -2491 -2398 -2317 -2255 -2216 -2179 -2240 -2305 -2175 -2098 -2108 -2142 -2215 -2239 -2083 -1906 -1782 -1768 -1876 -1861 -1596 -1224 -952 -795 -689 -620 -592 -821 -1017 -892 -922 -844 -658 -808 -873 -765 -667 -474 -373 -301 -154 -66 -37 -13 -4 -6 -7 
-3535 -3518 -3498 -3483 -3466 -3445 -3422 -3396 -3365 -3335 -3302 -3294 -3255 -3211 -3125 -3075 -3065 -3087 -3087 -3046 -3014 -2993 -2946 -2910 -2816 -2726 -2647 -2548 -2461 -2415 -2369 -2321 -2312 -2298 -2329 -2434 -2436 -2373 -2280 -2233 -2252 -2259 -2294 -2276 -2143 -1981 -1890 -1958 -1947 -1692 -1399 -1155 -993 -881 -805 -770 -734 -841 -1133 -1264 -1282 -1081 -760 -917 -955 -707 -375 -133 -102 -97 -77 -53 -27 -9 -5 -7 -7 
-3546 -3527 -3511 -3493 -3473 -3449 -3430 -3402 -3363 -3340 -3331 -3294 -3233 -3163 -3084 -3087 -3092 -3116 -3090 -3061 -3048 -3012 -2991 -2982 -2967 -2880 -2774 -2700 -2597 -2507 -2453 -2420 -2542 -2562 -2578 -2582 -2553 -2478 -2413 -2380 -2382 -2366 -2341 -2296 -2154 -2044 -2051 -2039 -1823 -1549 -1360 -1194 -1072 -1003 -975 -916 -809 -859 -1135 -1407 -1441 -1249 -864 -894 -1018 -632 -203 -87 -91 -85 -75 -55 -29 -11 -6 -8 -8 
-3554 -3537 -3522 -3499 -3477 -3455 -3429 -3389 -3358 -3346 -3335 -3285 -3240 -3191 -3162 -3129 -3145 -3137 -3112 -3091 -3064 -3041 -3030 -3015 -2991 -2918 -2837 -2796 -2662 -2587 -2548 -2562 -2678 -2721 -2700 -2656 -2616 -2580 -2528 -2481 -2449 -2417 -2363 -2307 -2194 -2143 -2112 -2027 -1787 -1525 -1364 -1246 -1158 -1111 -1083 -988 -882 -917 -1180 -1542 -1678 -1543 -1222 -1081 -1149 -628 -136 -94 -95 -87 -75 -57 -34 -14 -8 -8 -8 
-3558 -3544 -3524 -3500 -3478 -3445 -3411 -3387 -3367 -3367 -3341 -3303 -3265 -3239 -3212 -3181 -3197 -3170 -3125 -3109 -3094 -3076 -3049 -3021 -2975 -2908 -2832 -2768 -2677 -2628 -2656 -2752 -2777 -2757 -2723 -2680 -2638 -2592 -2547 -2498 -2448 -2404 -2361 -2301 -2212 -2160 -2039 -1860 -1693 -1541 -1407 -1299 -1234 -1201 -1160 -1090 -1019 -955 -1088 -1515 -1823 -1766 -1501 -1384 -982 -343 -91 -96 -93 -86 -76 -62 -38 -17 -10 -10 -10 
-3559 -3541 -3521 -3494 -3465 -3439 -3418 -3400 -3386 -3367 -3346 -3318 -3295 -3268 -3240 -3232 -3207 -3173 -3156 -3135 -3112 -3085 -3037 -2992 -2949 -2858 -2806 -2762 -2716 -2742 -2807 -2815 -2795 -2765 -2726 -2675 -2625 -2549 -2490 -2414 -2343 -2300 -2250 -2158 -2070 -1998 -1894 -1800 -1711 -1603 -1458 -1353 -1308 -1289 -1257 -1227 -1125 -1038 -1106 -1489 -1819 -1619 -1170 -810 -389 -113 -94 -95 -89 -83 -74 -60 -34 -15 -12 -12 -12 
-3556 -3534 -3509 -3483 -3464 -3449 -3437 -3417 -3393 -3366 -3341 -3318 -3298 -3276 -3262 -3239 -3214 -3195 -3172 -3142 -3121 -3052 -2990 -2964 -2911 -2840 -2799 -2757 -2787 -2834 -2862 -2832 -2802 -2767 -2734 -2683 -2595 -2499 -2400 -2322 -2263 -2202 -2214 -2171 -2085 -2039 -1985 -1891 -1791 -1668 -1548 -1480 -1425 -1408 -1369 -1308 -1201 -1166 -1360 -1824 -1851 -1704 -1201 -585 -230 -94 -94 -83 -77 -77 -70 -51 -26 -13 -12 -12 -12 
-3548 -3528 -3517 -3499 -3477 -3459 -3440 -3415 -3388 -3361 -3342 -3322 -3306 -3288 -3266 -3242 -3235 -3217 -3181 -3137 -3098 -3031 -2937 -2909 -2848 -2809 -2789 -2765 -2831 -2879 -2871 -2842 -2818 -2798 -2781 -2767 -2693 -2562 -2442 -2359 -2312 -2287 -2356 -2347 -2286 -2216 -2159 -2023 -1934 -1847 -1876 -1778 -1602 -1523 -1443 -1413 -1320 -1448 -1761 -2027 -1761 -1514 -1214 -585 -175 -85 -70 -43 -36 -55 -59 -38 -17 -11 -11 -11 -11 
-3558 -3541 -3522 -3500 -3475 -3452 -3432 -3411 -3390 -3367 -3349 -3331 -3316 -3299 -3276 -3261 -3250 -3220 -3151 -3097 -3030 -2967 -2907 -2840 -2800 -2771 -2773 -2816 -2873 -2907 -2885 -2861 -2840 -2822 -2808 -2793 -2750 -2639 -2526 -2445 -2424 -2492 -2548 -2558 -2529 -2484 -2509 -2388 -2307 -2258 -2332 -2161 -1831 -1671 -1554 -1500 -1445 -1709 -2114 -1976 -1582 -1327 -1195 -715 -205 -64 -45 -17 -5 -23 -32 -18 -10 -10 -11 -11 -11 
-3549 -3531 -3514 -3496 -3475 -3454 -3437 -3418 -3397 -3376 -3362 -3348 -3331 -3312 -3299 -3279 -3250 -3194 -3102 -3047 -3004 -2943 -2887 -2833 -2808 -2781 -2792 -2873 -2912 -2916 -2899 -2883 -2863 -2849 -2831 -2806 -2762 -2666 -2571 -2530 -2618 -2684 -2770 -2834 -2847 -2879 -2896 -2867 -2821 -2754 -2740 -2555 -2225 -1976 -1759 -1623 -1642 -2056 -2229 -1933 -1590 -1157 -1072 -845 -282 -47 -22 -4 -2 -4 -6 -6 -7 -9 -10 -11 -12 
-3552 -3535 -3517 -3498 -3479 -3462 -3444 -3425 -3406 -3391 -3376 -3359 -3341 -3327 -3307 -3277 -3244 -3171 -3096 -3031 -2987 -2942 -2896 -2851 -2830 -2814 -2847 -2904 -2938 -2932 -2913 -2899 -2882 -2867 -2845 -2807 -2742 -2662 -2593 -2709 -2884 -2966 -2986 -2978 -2935 -2892 -2823 -2749 -2667 -2525 -2564 -2668 -2573 -2267 -2046 -1812 -1964 -2264 -2128 -1814 -1578 -1153 -1020 -799 -300 -63 -14 0 -3 -4 -5 -6 -6 -7 -9 -11 -13 
-3557 -3540 -3523 -3505 -3486 -3468 -3449 -3429 -3415 -3402 -3384 -3369 -3349 -3329 -3306 -3278 -3235 -3159 -3095 -3042 -2999 -2953 -2916 -2880 -2839 -2834 -2865 -2925 -2964 -2951 -2928 -2908 -2893 -2878 -2855 -2809 -2739 -2671 -2694 -2946 -3053 -3036 -3004 -2949 -2803 -2631 -2375 -2199 -2146 -2056 -2032 -2319 -2564 -2489 -2301 -2230 -2318 -2236 -1885 -1524 -1304 -1065 -929 -780 -487 -192 -29 1 -2 -4 -7 -9 -10 -11 -15 -18 -22 
-3559 -3543 -3525 -3509 -3492 -3471 -3456 -3442 -3429 -3410 -3394 -3373 -3356 -3338 -3310 -3281 -3225 -3168 -3119 -3070 -3020 -2980 -2948 -2899 -2870 -2877 -2893 -2948 -2986 -2968 -2942 -2919 -2906 -2890 -2852 -2806 -2743 -2701 -2962 -3092 -3053 -2991 -2895 -2802 -2663 -2405 -2178 -1929 -1769 -1669 -1684 -1767 -2184 -2469 -2473 -2428 -2270 -2023 -1893 -1733 -1564 -1321 -911 -731 -653 -389 -160 -57 -11 -7 -15 -21 -21 -24 -24 -19 -24 
-3562 -3545 -3530 -3514 -3499 -3481 -3467 -3453 -3438 -3422 -3404 -3387 -3369 -3344 -3309 -3265 -3227 -3186 -3135 -3088 -3036 -2999 -2963 -2920 -2899 -2886 -2917 -2968 -2999 -2986 -2958 -2932 -2912 -2890 -2856 -2807 -2747 -2838 -3069 -3076 -3007 -2936 -2839 -2754 -2610 -2336 -2092 -1881 -1696 -1595 -1545 -1519 -1685 -1922 -2026 -2026 -1890 -1634 -1507 -1573 -1533 -1376 -1048 -643 -471 -401 -315 -139 -23 -22 -24 -24 -24 -24 -20 -14 -21 
-3566 -3550 -3535 -3522 -3505 -3494 -3477 -3460 -3444 -3431 -3417 -3396 -3371 -3340 -3304 -3263 -3230 -3194 -3144 -3086 -3040 -3008 -2974 -2939 -2931 -2933 -2961 -2993 -3016 -3002 -2960 -2931 -2911 -2889 -2857 -2802 -2767 -3003 -3138 -3079 -2995 -2899 -2771 -2663 -2525 -2282 -2051 -1885 -1700 -1567 -1494 -1445 -1459 -1508 -1606 -1601 -1738 -1571 -1237 -1167 -1228 -1236 -1009 -659 -373 -338 -207 -23 -14 -29 -27 -24 -24 -25 -18 -9 -6 
-3569 -3552 -3540 -3526 -3511 -3495 -3480 -3465 -3451 -3435 -3420 -3396 -3361 -3332 -3299 -3256 -3224 -3193 -3151 -3107 -3061 -3020 -2987 -2964 -2944 -2955 -2990 -3016 -3039 -3016 -2960 -2923 -2908 -2888 -2851 -2811 -2832 -3080 -3168 -3083 -2954 -2850 -2743 -2588 -2436 -2226 -2024 -1860 -1678 -1541 -1458 -1404 -1371 -1349 -1361 -1348 -1577 -1506 -1200 -1037 -983 -984 -857 -601 -322 -157 -98 -36 -3 -13 -22 -18 -15 -15 -17 -16 -10 
-3567 -3552 -3540 -3528 -3514 -3497 -3482 -3464 -3449 -3435 -3417 -3386 -3350 -3316 -3287 -3258 -3231 -3195 -3159 -3121 -3078 -3036 -3000 -2978 -2980 -2988 -3007 -3029 -3043 -3022 -2960 -2916 -2900 -2878 -2859 -2858 -2981 -3147 -3181 -3066 -2951 -2850 -2720 -2563 -2375 -2159 -1970 -1787 -1629 -1514 -1441 -1392 -1347 -1314 -1297 -1302 -1429 -1437 -1278 -1086 -957 -912 -770 -565 -341 -167 -102 -45 -2 0 -1 -1 -10 -18 -21 -23 -19 
-3567 -3553 -3540 -3527 -3513 -3496 -3482 -3464 -3449 -3430 -3405 -3376 -3348 -3317 -3286 -3265 -3237 -3196 -3160 -3126 -3083 -3047 -3022 -3003 -3011 -3019 -3037 -3059 -3056 -3018 -2955 -2913 -2898 -2890 -2878 -2928 -3095 -3189 -3187 -3109 -2988 -2887 -2758 -2575 -2319 -2087 -1887 -1727 -1596 -1493 -1436 -1415 -1385 -1334 -1280 -1254 -1250 -1227 -1161 -1077 -1006 -940 -815 -637 -427 -226 -116 -61 -14 2 1 2 0 -1 1 2 1 
-3570 -3552 -3537 -3525 -3509 -3492 -3479 -3460 -3445 -3420 -3397 -3370 -3339 -3312 -3283 -3260 -3223 -3196 -3165 -3123 -3077 -3049 -3036 -3036 -3040 -3045 -3059 -3101 -3091 -3020 -2949 -2911 -2911 -2907 -2908 -2986 -3159 -3215 -3157 -3079 -3040 -2962 -2819 -2626 -2327 -2075 -1896 -1725 -1580 -1483 -1446 -1478 -1496 -1430 -1290 -1197 -1137 -1072 -1027 -1009 -976 -931 -863 -738 -575 -383 -189 -77 -26 -1 0 2 2 1 4 6 3 
-3565 -3545 -3530 -3517 -3501 -3484 -3472 -3454 -3437 -3419 -3393 -3369 -3345 -3317 -3281 -3249 -3222 -3199 -3165 -3119 -3082 -3068 -3071 -3084 -3081 -3074 -3082 -3113 -3111 -3002 -2934 -2922 -2937 -2946 -2963 -3057 -3197 -3211 -3076 -3014 -3004 -2970 -2879 -2675 -2370 -2106 -1914 -1770 -1615 -1507 -1483 -1488 -1503 -1423 -1263 -1113 -1022 -957 -893 -857 -819 -780 -770 -769 -695 -506 -240 -87 -35 -4 0 0 0 0 1 2 0 
-3557 -3540 -3523 -3510 -3495 -3483 -3469 -3453 -3438 -3417 -3392 -3362 -3336 -3315 -3277 -3252 -3223 -3195 -3159 -3120 -3102 -3107 -3123 -3126 -3119 -3116 -3134 -3145 -3075 -2974 -2951 -2964 -2986 -3011 -3061 -3156 -3221 -3112 -3003 -2941 -2903 -2864 -2796 -2623 -2342 -2010 -1813 -1702 -1594 -1499 -1378 -1179 -1260 -1334 -1237 -1082 -959 -891 -832 -783 -743 -705 -669 -632 -569 -370 -161 -84 -44 -8 2 3 2 0 0 1 -1 
-3557 -3541 -3526 -3510 -3497 -3485 -3473 -3451 -3434 -3407 -3381 -3356 -3339 -3308 -3281 -3261 -3224 -3189 -3158 -3144 -3149 -3163 -3201 -3203 -3184 -3171 -3212 -3144 -3011 -2985 -3015 -3046 -3049 -3074 -3161 -3240 -3182 -3079 -2928 -2801 -2731 -2651 -2572 -2481 -2298 -1960 -1695 -1529 -1397 -1271 -1105 -966 -1148 -1274 -1209 -1064 -930 -852 -791 -742 -700 -660 -622 -577 -504 -302 -129 -87 -58 -20 -2 -1 -1 -2 -1 0 0 
-3555 -3539 -3523 -3506 -3496 -3483 -3471 -3449 -3430 -3399 -3378 -3357 -3332 -3302 -3289 -3254 -3215 -3188 -3169 -3187 -3211 -3271 -3399 -3383 -3280 -3211 -3160 -3094 -2993 -3025 -3113 -3131 -3124 -3186 -3253 -3245 -3118 -3043 -2853 -2646 -2500 -2358 -2250 -2222 -2204 -1960 -1673 -1453 -1297 -1158 -988 -1044 -1203 -1225 -1174 -1036 -901 -824 -765 -708 -646 -593 -558 -511 -412 -229 -111 -85 -56 -23 -9 -8 -7 -7 -5 -3 -4 
-3551 -3534 -3518 -3502 -3491 -3480 -3466 -3445 -3420 -3397 -3382 -3355 -3327 -3310 -3274 -3231 -3214 -3189 -3196 -3271 -3358 -3487 -3498 -3444 -3342 -3250 -3129 -3061 -2996 -3106 -3201 -3210 -3244 -3269 -3249 -3159 -3101 -3044 -2809 -2545 -2379 -2220 -2099 -2009 -1987 -1889 -1689 -1455 -1279 -1144 -966 -1008 -1109 -1114 -1100 -998 -880 -809 -752 -637 -499 -422 -381 -340 -243 -144 -103 -81 -54 -22 -4 -1 -1 -4 -4 -3 -1 
-3544 -3526 -3511 -3498 -3486 -3476 -3466 -3439 -3413 -3395 -3367 -3345 -3321 -3296 -3250 -3225 -3207 -3203 -3281 -3482 -3489 -3401 -3352 -3435 -3452 -3351 -3171 -3045 -2999 -3182 -3295 -3303 -3302 -3230 -3149 -3125 -3102 -3040 -2758 -2522 -2328 -2164 -2039 -1909 -1835 -1782 -1654 -1485 -1308 -1173 -1011 -1023 -1066 -1027 -989 -944 -875 -812 -736 -581 -414 -317 -243 -171 -133 -115 -98 -76 -55 -25 -2 1 0 -2 0 2 1 
-3536 -3517 -3504 -3493 -3483 -3475 -3457 -3427 -3408 -3382 -3354 -3337 -3313 -3277 -3243 -3223 -3231 -3290 -3506 -3479 -3387 -3304 -3255 -3229 -3364 -3469 -3346 -3166 -3098 -3292 -3337 -3287 -3221 -3172 -3149 -3140 -3097 -2979 -2705 -2495 -2326 -2160 -2008 -1862 -1777 -1706 -1588 -1443 -1304 -1170 -1018 -1002 -1016 -980 -955 -918 -867 -810 -715 -586 -427 -270 -170 -127 -114 -105 -89 -72 -53 -23 -1 1 0 -2 -1 -1 -4 
-3528 -3512 -3501 -3491 -3480 -3469 -3442 -3419 -3396 -3370 -3351 -3330 -3310 -3266 -3243 -3243 -3300 -3511 -3485 -3364 -3302 -3282 -3243 -3221 -3196 -3301 -3436 -3362 -3304 -3345 -3311 -3233 -3178 -3175 -3172 -3161 -3128 -2952 -2700 -2483 -2309 -2134 -1970 -1838 -1750 -1667 -1556 -1429 -1294 -1166 -996 -1012 -1015 -969 -960 -924 -857 -799 -710 -613 -487 -317 -193 -127 -98 -85 -74 -69 -56 -29 -6 0 0 -1 0 1 -3 
-3523 -3509 -3501 -3490 -3478 -3459 -3432 -3410 -3384 -3363 -3346 -3326 -3308 -3266 -3258 -3295 -3441 -3493 -3398 -3329 -3296 -3268 -3249 -3219 -3172 -3142 -3299 -3454 -3302 -3335 -3297 -3196 -3176 -3194 -3196 -3190 -3171 -3011 -2739 -2505 -2316 -2125 -1962 -1852 -1755 -1652 -1549 -1437 -1314 -1212 -1085 -1114 -1070 -978 -972 -953 -878 -805 -736 -645 -549 -450 -331 -201 -112 -66 -52 -60 -61 -42 -20 -7 -1 -1 -1 0 -2 
-3517 -3508 -3498 -3486 -3468 -3441 -3420 -3396 -3376 -3358 -3338 -3322 -3299 -3272 -3295 -3416 -3557 -3464 -3368 -3319 -3298 -3270 -3253 -3196 -3160 -3175 -3304 -3393 -3272 -3330 -3284 -3187 -3191 -3209 -3211 -3202 -3146 -3066 -2813 -2506 -2299 -2127 -1976 -1863 -1759 -1660 -1558 -1454 -1349 -1251 -1181 -1187 -1109 -1009 -977 -957 -912 -845 -774 -691 -604 -525 -455 -362 -225 -128 -77 -52 -69 -65 -40 -22 -5 0 -2 -1 -1 
-3509 -3497 -3489 -3475 -3454 -3430 -3408 -3384 -3369 -3353 -3336 -3308 -3284 -3309 -3416 -3554 -3544 -3404 -3348 -3320 -3296 -3280 -3232 -3188 -3133 -3349 -3338 -3269 -3266 -3339 -3255 -3195 -3209 -3230 -3233 -3217 -3157 -3109 -2932 -2596 -2422 -2216 -2024 -1898 -1792 -1686 -1582 -1486 -1382 -1286 -1213 -1202 -1147 -1048 -1003 -963 -937 -903 -840 -782 -692 -583 -520 -483 -417 -332 -191 -94 -147 -146 -74 -41 -19 -6 -3 -1 -2 
-3506 -3494 -3484 -3465 -3446 -3424 -3402 -3382 -3367 -3349 -3336 -3303 -3310 -3428 -3558 -3578 -3459 -3376 -3335 -3304 -3273 -3241 -3203 -3172 -3152 -3347 -3334 -3292 -3304 -3326 -3243 -3209 -3231 -3257 -3268 -3249 -3234 -3143 -2947 -2711 -2513 -2344 -2129 -1954 -1830 -1726 -1621 -1518 -1425 -1351 -1287 -1273 -1204 -1089 -1039 -1019 -989 -972 -933 -880 -806 -695 -614 -581 -555 -505 -377 -269 -366 -356 -206 -134 -83 -44 -19 -6 -1 
-3498 -3490 -3481 -3466 -3453 -3442 -3421 -3393 -3372 -3348 -3331 -3336 -3419 -3580 -3563 -3456 -3381 -3348 -3316 -3287 -3257 -3244 -3210 -3172 -3185 -3298 -3383 -3324 -3321 -3268 -3226 -3237 -3259 -3292 -3294 -3280 -3280 -3241 -3075 -2802 -2582 -2420 -2251 -2041 -1896 -1786 -1673 -1570 -1478 -1411 -1364 -1341 -1274 -1139 -1077 -1069 -1051 -1053 -1030 -981 -920 -832 -756 -706 -686 -650 -588 -534 -648 -589 -412 -331 -252 -192 -114 -51 -18 
-3495 -3494 -3493 -3493 -3486 -3484 -3467 -3431 -3383 -3348 -3352 -3453 -3573 -3553 -3432 -3376 -3358 -3345 -3319 -3291 -3262 -3267 -3232 -3194 -3216 -3276 -3311 -3300 -3279 -3254 -3255 -3266 -3290 -3321 -3317 -3315 -3318 -3331 -3255 -2978 -2721 -2557 -2311 -2117 -1997 -1864 -1738 -1636 -1550 -1475 -1428 -1395 -1284 -1138 -1090 -1102 -1115 -1138 -1117 -1065 -1009 -948 -887 -848 -813 -770 -720 -683 -769 -685 -555 -518 -482 -428 -294 -197 -146 
-3518 -3519 -3511 -3502 -3500 -3496 -3482 -3456 -3397 -3365 -3440 -3562 -3583 -3450 -3396 -3385 -3366 -3350 -3335 -3306 -3291 -3284 -3270 -3232 -3311 -3297 -3277 -3256 -3249 -3249 -3257 -3290 -3329 -3350 -3343 -3336 -3336 -3334 -3298 -3163 -2942 -2701 -2423 -2222 -2073 -1927 -1804 -1711 -1641 -1571 -1504 -1443 -1325 -1193 -1166 -1193 -1219 -1228 -1193 -1137 -1084 -1034 -997 -985 -934 -898 -883 -833 -853 -771 -674 -657 -632 -540 -439 -398 -395 
-3537 -3531 -3520 -3515 -3519 -3512 -3476 -3451 -3415 -3418 -3544 -3600 -3476 -3415 -3402 -3398 -3379 -3368 -3359 -3358 -3331 -3292 -3291 -3309 -3402 -3318 -3270 -3276 -3281 -3303 -3313 -3331 -3374 -3370 -3352 -3350 -3349 -3338 -3324 -3284 -3059 -2732 -2461 -2301 -2188 -2024 -1893 -1797 -1718 -1672 -1594 -1522 -1440 -1331 -1265 -1299 -1332 -1313 -1262 -1203 -1154 -1115 -1099 -1136 -1140 -1120 -1094 -1038 -941 -872 -853 -803 -675 -585 -556 -504 -554 
-3546 -3539 -3530 -3529 -3529 -3502 -3462 -3433 -3412 -3506 -3595 -3541 -3442 -3419 -3414 -3411 -3406 -3404 -3395 -3382 -3358 -3343 -3325 -3395 -3401 -3332 -3315 -3323 -3321 -3330 -3341 -3356 -3389 -3381 -3363 -3359 -3358 -3352 -3339 -3311 -3142 -2865 -2587 -2396 -2258 -2110 -1974 -1871 -1786 -1730 -1667 -1608 -1548 -1488 -1456 -1441 -1421 -1380 -1324 -1268 -1224 -1188 -1195 -1298 -1380 -1337 -1289 -1155 -1056 -1022 -906 -800 -713 -685 -668 -610 -614 
-3556 -3551 -3542 -3536 -3529 -3486 -3444 -3428 -3462 -3586 -3617 -3485 -3441 -3441 -3439 -3441 -3445 -3436 -3415 -3404 -3381 -3388 -3370 -3407 -3383 -3378 -3377 -3352 -3350 -3367 -3386 -3402 -3409 -3390 -3372 -3367 -3367 -3359 -3329 -3303 -3198 -2951 -2686 -2456 -2302 -2178 -2057 -1949 -1865 -1793 -1723 -1705 -1677 -1629 -1577 -1536 -1492 -1438 -1382 -1335 -1295 -1268 -1314 -1473 -1515 -1391 -1349 -1290 -1247 -1116 -994 -912 -804 -785 -752 -711 -640 
-3568 -3556 -3541 -3518 -3489 -3463 -3427 -3421 -3524 -3633 -3555 -3477 -3466 -3481 -3478 -3479 -3474 -3456 -3448 -3443 -3409 -3399 -3422 -3428 -3413 -3415 -3402 -3398 -3388 -3392 -3419 -3428 -3418 -3394 -3383 -3375 -3368 -3356 -3325 -3295 -3215 -2954 -2678 -2492 -2365 -2280 -2204 -2096 -1994 -1894 -1800 -1789 -1823 -1754 -1675 -1621 -1557 -1493 -1444 -1414 -1377 -1428 -1547 -1544 -1569 -1410 -1217 -1188 -1240 -1179 -1119 -1065 -952 -909 -885 -837 -734 
-3564 -3537 -3521 -3492 -3475 -3440 -3415 -3415 -3527 -3614 -3534 -3494 -3497 -3503 -3501 -3500 -3496 -3483 -3464 -3448 -3450 -3438 -3466 -3414 -3399 -3409 -3438 -3446 -3422 -3398 -3421 -3437 -3427 -3407 -3396 -3384 -3367 -3358 -3344 -3310 -3264 -2996 -2700 -2527 -2418 -2421 -2406 -2270 -2109 -1982 -2009 -2129 -2127 -1983 -1844 -1723 -1628 -1566 -1524 -1498 -1459 -1671 -1713 -1554 -1500 -1367 -1223 -1169 -1217 -1218 -1140 -1094 -1048 -957 -922 -865 -777 
-3561 -3535 -3511 -3489 -3453 -3408 -3410 -3452 -3509 -3609 -3565 -3530 -3535 -3529 -3517 -3510 -3508 -3498 -3495 -3454 -3455 -3456 -3444 -3427 -3422 -3437 -3453 -3459 -3449 -3441 -3458 -3456 -3443 -3426 -3411 -3395 -3377 -3365 -3352 -3322 -3278 -3111 -2832 -2624 -2568 -2596 -2480 -2277 -2105 -2134 -2449 -2556 -2444 -2161 -2004 -1906 -1840 -1787 -1748 -1673 -1611 -1712 -1597 -1421 -1380 -1318 -1239 -1177 -1142 -1109 -1064 -1025 -993 -950 -904 -853 -818 
-3569 -3542 -3507 -3469 -3439 -3406 -3429 -3474 -3543 -3643 -3590 -3557 -3561 -3549 -3527 -3529 -3518 -3513 -3519 -3469 -3479 -3521 -3458 -3457 -3457 -3459 -3459 -3466 -3467 -3465 -3487 -3477 -3457 -3441 -3424 -3405 -3391 -3373 -3350 -3320 -3287 -3180 -2962 -2780 -2794 -2806 -2563 -2315 -2242 -2502 -2618 -2338 -2100 -1989 -1984 -2052 -2032 -1959 -1917 -1815 -1727 -1614 -1465 -1378 -1335 -1304 -1240 -1174 -1138 -1107 -1076 -1047 -1021 -988 -946 -903 -867 
-3576 -3536 -3491 -3469 -3453 -3428 -3442 -3479 -3533 -3634 -3628 -3577 -3565 -3568 -3552 -3534 -3531 -3525 -3535 -3493 -3469 -3494 -3498 -3475 -3476 -3473 -3469 -3476 -3486 -3499 -3502 -3488 -3470 -3456 -3437 -3415 -3406 -3387 -3358 -3321 -3270 -3179 -3066 -2978 -3000 -2936 -2737 -2554 -2483 -2753 -2698 -2270 -1987 -1889 -1839 -1778 -1755 -1690 -1616 -1574 -1522 -1459 -1396 -1345 -1302 -1260 -1216 -1178 -1149 -1123 -1103 -1085 -1061 -1035 -1008 -973 -910 
-3581 -3532 -3499 -3484 -3475 -3476 -3460 -3485 -3525 -3575 -3654 -3618 -3577 -3581 -3573 -3556 -3536 -3535 -3550 -3536 -3508 -3497 -3496 -3503 -3497 -3509 -3505 -3503 -3505 -3523 -3514 -3495 -3482 -3469 -3452 -3431 -3416 -3390 -3356 -3318 -3266 -3190 -3110 -3022 -3059 -3064 -2962 -2868 -2765 -2893 -2726 -2222 -1932 -1828 -1721 -1618 -1664 -1645 -1561 -1516 -1471 -1421 -1370 -1326 -1288 -1252 -1220 -1197 -1179 -1160 -1150 -1137 -1111 -1090 -1078 -1024 -964 
-3581 -3540 -3507 -3505 -3488 -3493 -3487 -3525 -3543 -3546 -3635 -3641 -3604 -3589 -3584 -3571 -3562 -3545 -3547 -3561 -3551 -3541 -3533 -3540 -3531 -3520 -3526 -3524 -3542 -3542 -3529 -3505 -3493 -3482 -3466 -3447 -3424 -3390 -3363 -3328 -3271 -3225 -3218 -3134 -3125 -3086 -3003 -2924 -2918 -2970 -2740 -2264 -1949 -1783 -1630 -1581 -1634 -1616 -1555 -1510 -1475 -1446 -1399 -1348 -1310 -1283 -1275 -1267 -1245 -1223 -1210 -1187 -1160 -1141 -1105 -1046 -1048 
-3580 -3542 -3517 -3512 -3499 -3486 -3502 -3532 -3540 -3549 -3608 -3658 -3622 -3591 -3584 -3577 -3577 -3564 -3553 -3566 -3568 -3561 -3566 -3558 -3562 -3549 -3542 -3556 -3561 -3554 -3538 -3516 -3505 -3492 -3476 -3460 -3436 -3394 -3384 -3336 -3295 -3308 -3306 -3278 -3213 -3150 -3085 -3040 -3021 -2940 -2693 -2256 -1937 -1809 -1721 -1706 -1684 -1625 -1573 -1536 -1530 -1536 -1481 -1413 -1393 -1372 -1370 -1357 -1306 -1269 -1246 -1214 -1184 -1164 -1126 -1077 -1070 
-3582 -3545 -3524 -3515 -3505 -3491 -3506 -3529 -3542 -3555 -3606 -3651 -3619 -3592 -3585 -3581 -3580 -3572 -3567 -3577 -3581 -3587 -3583 -3572 -3571 -3578 -3583 -3581 -3577 -3560 -3539 -3524 -3514 -3500 -3483 -3467 -3442 -3407 -3375 -3341 -3343 -3340 -3309 -3277 -3229 -3156 -3115 -3084 -2963 -2847 -2609 -2314 -2128 -2046 -1982 -1883 -1760 -1673 -1635 -1601 -1596 -1641 -1601 -1506 -1492 -1441 -1372 -1335 -1284 -1250 -1230 -1201 -1174 -1157 -1120 -1088 -1079 
-3585 -3549 -3530 -3519 -3511 -3499 -3514 -3532 -3547 -3560 -3607 -3644 -3619 -3598 -3592 -3589 -3589 -3586 -3584 -3592 -3593 -3592 -3604 -3601 -3583 -3598 -3605 -3600 -3584 -3560 -3547 -3535 -3520 -3503 -3486 -3465 -3439 -3416 -3387 -3386 -3385 -3338 -3288 -3237 -3163 -3014 -2980 -2990 -2961 -2870 -2656 -2456 -2319 -2230 -2116 -1945 -1810 -1735 -1735 -1720 -1720 -1770 -1701 -1560 -1464 -1388 -1339 -1322 -1298 -1273 -1253 -1223 -1196 -1178 -1139 -1112 -1103 
-3589 -3554 -3537 -3525 -3517 -3506 -3520 -3537 -3553 -3565 -3607 -3645 -3623 -3604 -3600 -3599 -3601 -3600 -3601 -3608 -3612 -3615 -3614 -3616 -3612 -3619 -3621 -3604 -3589 -3573 -3562 -3546 -3531 -3512 -3495 -3472 -3454 -3439 -3429 -3418 -3382 -3334 -3284 -3197 -3108 -3029 -3013 -3015 -2982 -2890 -2717 -2561 -2338 -2189 -2081 -1943 -1859 -1832 -1855 -1858 -1840 -1758 -1652 -1563 -1477 -1400 -1357 -1349 -1332 -1311 -1290 -1258 -1231 -1211 -1171 -1145 -1136 
-3593 -3559 -3544 -3532 -3524 -3513 -3528 -3544 -3561 -3572 -3609 -3648 -3630 -3612 -3610 -3611 -3613 -3614 -3617 -3622 -3628 -3637 -3636 -3635 -3640 -3640 -3626 -3613 -3603 -3592 -3580 -3563 -3544 -3531 -3516 -3499 -3486 -3469 -3448 -3411 -3373 -3326 -3274 -3219 -3147 -3086 -3076 -3074 -3023 -2911 -2691 -2450 -2286 -2173 -2093 -2013 -1971 -1982 -1960 -1875 -1772 -1679 -1627 -1576 -1522 -1469 -1416 -1395 -1376 -1353 -1330 -1297 -1269 -1247 -1205 -1180 -1169 
-3599 -3567 -3552 -3540 -3534 -3524 -3538 -3554 -3572 -3582 -3615 -3656 -3641 -3625 -3624 -3626 -3630 -3632 -3635 -3641 -3649 -3653 -3654 -3655 -3655 -3650 -3639 -3626 -3611 -3601 -3586 -3565 -3550 -3531 -3512 -3498 -3483 -3465 -3440 -3414 -3370 -3332 -3295 -3229 -3166 -3142 -3164 -3165 -3102 -2945 -2699 -2448 -2288 -2204 -2150 -2109 -2055 -1999 -1900 -1794 -1711 -1581 -1521 -1520 -1528 -1514 -1455 -1411 -1380 -1354 -1330 -1296 -1269 -1246 -1203 -1180 -1171 
-3606 -3575 -3562 -3551 -3544 -3536 -3550 -3566 -3584 -3595 -3624 -3666 -3654 -3640 -3640 -3644 -3649 -3653 -3657 -3664 -3671 -3672 -3675 -3678 -3672 -3657 -3646 -3633 -3614 -3594 -3578 -3564 -3548 -3530 -3517 -3506 -3494 -3465 -3405 -3405 -3378 -3334 -3318 -3236 -3198 -3185 -3225 -3215 -3123 -2915 -2664 -2454 -2315 -2225 -2114 -2039 -1972 -1888 -1820 -1758 -1649 -1518 -1460 -1440 -1424 -1391 -1362 -1355 -1338 -1319 -1299 -1269 -1245 -1223 -1183 -1165 -1160 
-3613 -3583 -3570 -3558 -3554 -3547 -3561 -3577 -3596 -3606 -3632 -3674 -3666 -3653 -3654 -3659 -3666 -3671 -3677 -3685 -3688 -3691 -3694 -3679 -3661 -3643 -3633 -3625 -3609 -3599 -3590 -3574 -3558 -3545 -3521 -3436 -3354 -3225 -3185 -3349 -3365 -3317 -3286 -3208 -3175 -3204 -3274 -3293 -3215 -2940 -2691 -2478 -2263 -2109 -1946 -1875 -1895 -1864 -1777 -1693 -1555 -1419 -1369 -1369 -1350 -1316 -1300 -1294 -1281 -1271 -1258 -1236 -1218 -1202 -1167 -1152 -1150 
-3620 -3590 -3579 -3564 -3564 -3558 -3571 -3587 -3607 -3616 -3640 -3682 -3676 -3664 -3665 -3672 -3678 -3684 -3691 -3699 -3702 -3704 -3688 -3639 -3595 -3603 -3619 -3615 -3608 -3598 -3583 -3564 -3542 -3515 -3362 -3045 -2840 -2682 -2975 -3287 -3320 -3285 -3241 -3197 -3194 -3226 -3311 -3359 -3344 -3129 -2854 -2591 -2276 -1968 -1737 -1640 -1704 -1732 -1644 -1575 -1447 -1320 -1264 -1254 -1261 -1250 -1239 -1230 -1220 -1214 -1205 -1188 -1174 -1162 -1132 -1120 -1119 
-3626 -3594 -3586 -3577 -3574 -3568 -3580 -3597 -3616 -3625 -3646 -3690 -3684 -3673 -3675 -3682 -3688 -3694 -3702 -3711 -3712 -3708 -3661 -3599 -3549 -3597 -3622 -3616 -3607 -3586 -3568 -3541 -3424 -3309 -2914 -2513 -2362 -2571 -3005 -3266 -3291 -3278 -3268 -3258 -3244 -3268 -3295 -3354 -3412 -3234 -2997 -2752 -2390 -1951 -1644 -1508 -1530 -1517 -1413 -1388 -1316 -1238 -1208 -1187 -1178 -1154 -1137 -1140 -1140 -1140 -1137 -1125 -1116 -1109 -1083 -1076 -1084 
-3630 -3600 -3593 -3584 -3582 -3579 -3589 -3604 -3623 -3631 -3648 -3692 -3689 -3679 -3682 -3688 -3695 -3701 -3708 -3716 -3718 -3694 -3616 -3586 -3608 -3621 -3620 -3611 -3590 -3565 -3550 -3474 -3159 -2851 -2415 -2079 -2203 -2730 -3191 -3300 -3300 -3311 -3321 -3328 -3313 -3344 -3371 -3387 -3470 -3404 -3202 -2948 -2619 -2134 -1716 -1513 -1438 -1354 -1267 -1275 -1247 -1197 -1165 -1124 -1112 -1089 -1063 -1071 -1082 -1088 -1090 -1084 -1081 -1078 -1058 -1055 -1072 
-3636 -3607 -3600 -3591 -3590 -3596 -3599 -3611 -3631 -3637 -3654 -3697 -3694 -3685 -3688 -3694 -3700 -3705 -3711 -3718 -3720 -3689 -3612 -3624 -3640 -3628 -3614 -3595 -3570 -3547 -3467 -3196 -2781 -2279 -1867 -1752 -2362 -3067 -3304 -3322 -3334 -3350 -3371 -3383 -3378 -3418 -3434 -3416 -3479 -3483 -3360 -3191 -2930 -2419 -1880 -1568 -1388 -1262 -1225 -1248 -1227 -1189 -1151 -1097 -1083 -1083 -1067 -1071 -1081 -1088 -1092 -1088 -1087 -1086 -1068 -1067 -1074 
-3638 -3610 -3603 -3595 -3594 -3600 -3602 -3615 -3635 -3640 -3656 -3696 -3694 -3685 -3688 -3694 -3699 -3705 -3713 -3720 -3720 -3694 -3660 -3652 -3638 -3620 -3597 -3569 -3542 -3498 -3245 -2838 -2304 -1791 -1657 -1980 -2662 -3199 -3333 -3345 -3365 -3386 -3419 -3438 -3430 -3457 -3478 -3457 -3490 -3499 -3445 -3391 -3125 -2596 -2088 -1728 -1441 -1284 -1255 -1258 -1236 -1207 -1170 -1115 -1094 -1095 -1094 -1099 -1102 -1107 -1110 -1105 -1103 -1101 -1083 -1082 -1093 
-3642 -3616 -3609 -3602 -3601 -3607 -3609 -3622 -3641 -3646 -3660 -3698 -3696 -3689 -3691 -3697 -3702 -3707 -3713 -3718 -3716 -3692 -3696 -3664 -3633 -3607 -3579 -3550 -3515 -3404 -3038 -2571 -2009 -1643 -1820 -2366 -2982 -3290 -3344 -3361 -3384 -3423 -3459 -3475 -3470 -3489 -3503 -3481 -3517 -3525 -3472 -3430 -3236 -2833 -2391 -2006 -1639 -1405 -1327 -1289 -1269 -1251 -1199 -1131 -1115 -1121 -1117 -1118 -1120 -1123 -1125 -1120 -1117 -1114 -1096 -1095 -1110 
-3658 -3634 -3627 -3621 -3621 -3626 -3628 -3641 -3660 -3665 -3678 -3715 -3714 -3707 -3709 -3714 -3719 -3723 -3726 -3728 -3731 -3738 -3715 -3671 -3639 -3612 -3577 -3542 -3486 -3284 -2823 -2314 -1766 -1634 -2112 -2640 -3111 -3322 -3366 -3382 -3401 -3446 -3484 -3504 -3500 -3511 -3523 -3510 -3550 -3560 -3514 -3489 -3359 -3023 -2602 -2229 -1857 -1564 -1399 -1331 -1316 -1285 -1196 -1127 -1130 -1134 -1129 -1133 -1135 -1137 -1138 -1133 -1129 -1126 -1108 -1107 -1125 
-3671 -3648 -3643 -3637 -3638 -3643 -3645 -3657 -3677 -3682 -3696 -3731 -3731 -3725 -3728 -3734 -3739 -3744 -3750 -3756 -3763 -3765 -3739 -3695 -3656 -3625 -3577 -3517 -3354 -3071 -2504 -1993 -1684 -1952 -2451 -2991 -3260 -3357 -3403 -3419 -3430 -3456 -3487 -3520 -3529 -3536 -3544 -3531 -3566 -3581 -3548 -3520 -3447 -3186 -2855 -2492 -2026 -1676 -1485 -1387 -1354 -1307 -1201 -1133 -1144 -1150 -1148 -1154 -1157 -1159 -1160 -1154 -1150 -1147 -1129 -1128 -1147 
-3678 -3656 -3650 -3647 -3649 -3653 -3655 -3668 -3687 -3693 -3706 -3741 -3742 -3737 -3741 -3747 -3753 -3759 -3766 -3773 -3774 -3767 -3738 -3700 -3654 -3610 -3548 -3462 -3143 -2774 -2253 -1770 -1846 -2360 -2912 -3244 -3347 -3383 -3424 -3456 -3468 -3479 -3499 -3537 -3557 -3564 -3563 -3552 -3577 -3594 -3560 -3532 -3523 -3386 -3104 -2661 -2145 -1791 -1575 -1454 -1407 -1347 -1231 -1169 -1197 -1200 -1184 -1184 -1184 -1186 -1185 -1178 -1173 -1169 -1151 -1149 -1172 
-3684 -3663 -3659 -3657 -3658 -3662 -3664 -3676 -3695 -3701 -3714 -3747 -3748 -3744 -3748 -3754 -3760 -3765 -3771 -3776 -3774 -3755 -3729 -3695 -3639 -3594 -3533 -3356 -2982 -2590 -2085 -1890 -2123 -2711 -3183 -3325 -3355 -3382 -3422 -3464 -3497 -3514 -3530 -3558 -3575 -3584 -3581 -3578 -3598 -3619 -3585 -3550 -3519 -3421 -3143 -2645 -2209 -1913 -1677 -1543 -1480 -1401 -1291 -1245 -1265 -1231 -1190 -1187 -1188 -1189 -1187 -1179 -1174 -1168 -1151 -1148 -1175 
-3696 -3676 -3672 -3669 -3670 -3675 -3677 -3689 -3707 -3714 -3725 -3757 -3758 -3754 -3758 -3764 -3769 -3774 -3778 -3782 -3783 -3770 -3748 -3715 -3661 -3616 -3517 -3277 -2830 -2407 -2267 -2240 -2542 -2987 -3235 -3305 -3347 -3383 -3416 -3450 -3491 -3539 -3562 -3577 -3589 -3599 -3591 -3583 -3612 -3642 -3605 -3563 -3520 -3403 -3122 -2704 -2310 -2021 -1805 -1651 -1550 -1454 -1356 -1310 -1277 -1208 -1167 -1168 -1171 -1173 -1171 -1165 -1160 -1155 -1139 -1137 -1160 
-3705 -3687 -3681 -3678 -3680 -3684 -3687 -3698 -3716 -3723 -3734 -3765 -3766 -3763 -3767 -3773 -3778 -3784 -3789 -3798 -3806 -3803 -3791 -3754 -3670 -3569 -3465 -3322 -2979 -2602 -2445 -2484 -2710 -3064 -3190 -3230 -3301 -3367 -3403 -3449 -3498 -3544 -3576 -3590 -3599 -3609 -3594 -3571 -3612 -3648 -3619 -3586 -3546 -3480 -3217 -2844 -2489 -2181 -1942 -1752 -1622 -1517 -1429 -1343 -1259 -1184 -1145 -1144 -1147 -1150 -1148 -1143 -1139 -1135 -1120 -1119 -1138 
-3711 -3693 -3688 -3685 -3687 -3692 -3695 -3706 -3724 -3731 -3742 -3772 -3774 -3771 -3775 -3781 -3787 -3792 -3798 -3804 -3806 -3808 -3806 -3760 -3645 -3515 -3431 -3292 -3197 -2961 -2606 -2641 -2888 -3086 -3117 -3170 -3259 -3324 -3380 -3465 -3516 -3553 -3584 -3600 -3608 -3618 -3607 -3588 -3616 -3657 -3637 -3598 -3568 -3545 -3311 -2977 -2658 -2373 -2114 -1898 -1745 -1602 -1477 -1362 -1252 -1161 -1121 -1126 -1134 -1139 -1139 -1134 -1131 -1128 -1115 -1115 -1130 
-3716 -3698 -3693 -3691 -3692 -3698 -3700 -3711 -3729 -3735 -3746 -3774 -3776 -3774 -3778 -3783 -3789 -3794 -3799 -3803 -3805 -3807 -3802 -3751 -3678 -3614 -3497 -3324 -3226 -3056 -2722 -2755 -3060 -3177 -3158 -3162 -3219 -3286 -3366 -3475 -3539 -3570 -3594 -3611 -3619 -3629 -3629 -3616 -3636 -3671 -3653 -3613 -3573 -3513 -3306 -3005 -2708 -2488 -2253 -2032 -1880 -1714 -1558 -1418 -1285 -1177 -1130 -1132 -1139 -1145 -1145 -1141 -1138 -1136 -1123 -1123 -1136 
				]
			}
		}
		]
		}
	]
	}
]
}
DEF TimeMarker TimeSensor { 
	cycleInterval 1.0 
	loop FALSE 
	startTime	0.0 
	stopTime	1.0 
}, 
DEF ScaleMarker PositionInterpolator { 
	key [0.0 1.0] 
	keyValue [0.01 0.01 0.01, 0.01 0.01 0.01] 
} 

ROUTE  SphereMarker.touchTime		TO TimeMarker.set_startTime
ROUTE  TimeMarker.fraction_changed 	TO ScaleMarker.set_fraction
ROUTE  ScaleMarker.value_changed	TO NavigationMarker.set_scale
